transcript
# vsim -c -novopt sisc_tb 
# //  ModelSim SE-64 6.5b_1 Jul 14 2009 Linux 3.11.10-11-desktop
# //
# //  Copyright 1991-2009 Mentor Graphics Corporation
# //              All Rights Reserved.
# //
# //  THIS WORK CONTAINS TRADE SECRET AND 
# //  PROPRIETARY INFORMATION WHICH IS THE PROPERTY
# //  OF MENTOR GRAPHICS CORPORATION OR ITS LICENSORS
# //  AND IS SUBJECT TO LICENSE TERMS.
# //
# Refreshing /nfs/s-l011/local/vol02/m/mfina/carch/VerilogProject/work.sisc_tb
# Loading work.sisc_tb
# Refreshing /nfs/s-l011/local/vol02/m/mfina/carch/VerilogProject/work.sisc
# Loading work.sisc
# Refreshing /nfs/s-l011/local/vol02/m/mfina/carch/VerilogProject/work.mux32
# Loading work.mux32
# Refreshing /nfs/s-l011/local/vol02/m/mfina/carch/VerilogProject/work.swap_data
# Loading work.swap_data
# Refreshing /nfs/s-l011/local/vol02/m/mfina/carch/VerilogProject/work.swap_reg
# Loading work.swap_reg
# Refreshing /nfs/s-l011/local/vol02/m/mfina/carch/VerilogProject/work.mux16
# Loading work.mux16
# Refreshing /nfs/s-l011/local/vol02/m/mfina/carch/VerilogProject/work.dm
# Loading work.dm
# Refreshing /nfs/s-l011/local/vol02/m/mfina/carch/VerilogProject/work.mux4
# Loading work.mux4
# Refreshing /nfs/s-l011/local/vol02/m/mfina/carch/VerilogProject/work.rf
# Loading work.rf
# Refreshing /nfs/s-l011/local/vol02/m/mfina/carch/VerilogProject/work.alu
# Loading work.alu
# Refreshing /nfs/s-l011/local/vol02/m/mfina/carch/VerilogProject/work.statreg
# Loading work.statreg
# Refreshing /nfs/s-l011/local/vol02/m/mfina/carch/VerilogProject/work.ctrl
# Loading work.ctrl
# Refreshing /nfs/s-l011/local/vol02/m/mfina/carch/VerilogProject/work.pc
# Loading work.pc
# Refreshing /nfs/s-l011/local/vol02/m/mfina/carch/VerilogProject/work.im
# Loading work.im
# Refreshing /nfs/s-l011/local/vol02/m/mfina/carch/VerilogProject/work.br
# Loading work.br
# Refreshing /nfs/s-l011/local/vol02/m/mfina/carch/VerilogProject/work.sisc_test
# Loading work.sisc_test
#                    0 IR>: 00000000, PC=0000, R1=00000000, R2=00000000, Data_swapped = xxxxxxxx swap_mux_data=00000000, wb_data=00000000, swap_reg=x, RF_WE=x write_reg=x, RD_SEL=xx, SWAP_DATA=x, SWAP_REG = x
#                    5 IR>: 00000000, PC=0000, R1=00000000, R2=00000000, Data_swapped = 00000000 swap_mux_data=00000000, wb_data=00000000, swap_reg=0, RF_WE=0 write_reg=0, RD_SEL=00, SWAP_DATA=1, SWAP_REG = 1
#                   95 IR>: 88010001, PC=0001, R1=00000000, R2=00000000, Data_swapped = 00000000 swap_mux_data=00000000, wb_data=00000000, swap_reg=0, RF_WE=0 write_reg=0, RD_SEL=00, SWAP_DATA=1, SWAP_REG = 1
#                  105 IR>: 88010001, PC=0001, R1=00000000, R2=00000000, Data_swapped = 00000000 swap_mux_data=00000000, wb_data=00000000, swap_reg=0, RF_WE=0 write_reg=1, RD_SEL=01, SWAP_DATA=1, SWAP_REG = 1
#                  115 IR>: 88010001, PC=0001, R1=00000000, R2=00000000, Data_swapped = 00000000 swap_mux_data=00000001, wb_data=00000001, swap_reg=0, RF_WE=0 write_reg=1, RD_SEL=01, SWAP_DATA=1, SWAP_REG = 1
#                  125 IR>: 88010001, PC=0001, R1=00000001, R2=00000000, Data_swapped = 00000000 swap_mux_data=00000001, wb_data=00000001, swap_reg=0, RF_WE=1 write_reg=1, RD_SEL=01, SWAP_DATA=1, SWAP_REG = 1
#                  145 IR>: 80112001, PC=0002, R1=00000001, R2=00000000, Data_swapped = 00000001 swap_mux_data=00000002, wb_data=00000002, swap_reg=1, RF_WE=0 write_reg=1, RD_SEL=01, SWAP_DATA=1, SWAP_REG = 1
#                  155 IR>: 80112001, PC=0002, R1=00000001, R2=00000000, Data_swapped = 00000001 swap_mux_data=00000002, wb_data=00000002, swap_reg=1, RF_WE=0 write_reg=2, RD_SEL=00, SWAP_DATA=1, SWAP_REG = 1
#                  175 IR>: 80112001, PC=0002, R1=00000001, R2=00000002, Data_swapped = 00000001 swap_mux_data=00000002, wb_data=00000002, swap_reg=1, RF_WE=1 write_reg=2, RD_SEL=00, SWAP_DATA=1, SWAP_REG = 1
#                  195 IR>: 80213002, PC=0003, R1=00000001, R2=00000002, Data_swapped = 00000001 swap_mux_data=00000001, wb_data=00000001, swap_reg=2, RF_WE=0 write_reg=3, RD_SEL=00, SWAP_DATA=1, SWAP_REG = 1
#                  225 IR>: 80213002, PC=0003, R1=00000001, R2=00000002, Data_swapped = 00000001 swap_mux_data=00000001, wb_data=00000001, swap_reg=2, RF_WE=1 write_reg=3, RD_SEL=00, SWAP_DATA=1, SWAP_REG = 1
#                  245 IR>: 62000006, PC=0004, R1=00000001, R2=00000002, Data_swapped = 00000000 swap_mux_data=00000000, wb_data=00000000, swap_reg=0, RF_WE=0 write_reg=0, RD_SEL=00, SWAP_DATA=1, SWAP_REG = 1
# branching negative
#                  275 IR>: 88010004, PC=0006, R1=00000001, R2=00000002, Data_swapped = 00000001 swap_mux_data=ffffffff, wb_data=ffffffff, swap_reg=0, RF_WE=0 write_reg=0, RD_SEL=00, SWAP_DATA=1, SWAP_REG = 1
#                  285 IR>: 88010004, PC=0006, R1=00000001, R2=00000002, Data_swapped = 00000001 swap_mux_data=ffffffff, wb_data=ffffffff, swap_reg=0, RF_WE=0 write_reg=1, RD_SEL=01, SWAP_DATA=1, SWAP_REG = 1
#                  295 IR>: 88010004, PC=0006, R1=00000001, R2=00000002, Data_swapped = 00000001 swap_mux_data=00000004, wb_data=00000004, swap_reg=0, RF_WE=0 write_reg=1, RD_SEL=01, SWAP_DATA=1, SWAP_REG = 1
#                  305 IR>: 88010004, PC=0006, R1=00000004, R2=00000002, Data_swapped = 00000001 swap_mux_data=00000004, wb_data=00000004, swap_reg=0, RF_WE=1 write_reg=1, RD_SEL=01, SWAP_DATA=1, SWAP_REG = 1
#                  325 IR>: 80215002, PC=0007, R1=00000004, R2=00000002, Data_swapped = 00000004 swap_mux_data=fffffffe, wb_data=fffffffe, swap_reg=2, RF_WE=0 write_reg=1, RD_SEL=01, SWAP_DATA=1, SWAP_REG = 1
#                  335 IR>: 80215002, PC=0007, R1=00000004, R2=00000002, Data_swapped = 00000004 swap_mux_data=fffffffe, wb_data=fffffffe, swap_reg=2, RF_WE=0 write_reg=5, RD_SEL=00, SWAP_DATA=1, SWAP_REG = 1
#                  355 IR>: 80215002, PC=0007, R1=00000004, R2=00000002, Data_swapped = 00000004 swap_mux_data=fffffffe, wb_data=fffffffe, swap_reg=2, RF_WE=1 write_reg=5, RD_SEL=00, SWAP_DATA=1, SWAP_REG = 1
#                  375 IR>: 62000000, PC=0008, R1=00000004, R2=00000002, Data_swapped = 00000000 swap_mux_data=00000000, wb_data=00000000, swap_reg=0, RF_WE=0 write_reg=0, RD_SEL=00, SWAP_DATA=1, SWAP_REG = 1
# branching negative fail
#                  425 IR>: 80536001, PC=0009, R1=00000004, R2=00000002, Data_swapped = 00000001 swap_mux_data=ffffffff, wb_data=ffffffff, swap_reg=5, RF_WE=0 write_reg=6, RD_SEL=00, SWAP_DATA=1, SWAP_REG = 1
#                  455 IR>: 80536001, PC=0009, R1=00000004, R2=00000002, Data_swapped = 00000001 swap_mux_data=ffffffff, wb_data=ffffffff, swap_reg=5, RF_WE=1 write_reg=6, RD_SEL=00, SWAP_DATA=1, SWAP_REG = 1
#                  475 IR>: 53000001, PC=000a, R1=00000004, R2=00000002, Data_swapped = 00000000 swap_mux_data=00000000, wb_data=00000000, swap_reg=0, RF_WE=0 write_reg=0, RD_SEL=00, SWAP_DATA=1, SWAP_REG = 1
# branching relative
#                  505 IR>: 80124002, PC=000c, R1=00000004, R2=00000002, Data_swapped = 00000002 swap_mux_data=00000002, wb_data=00000002, swap_reg=1, RF_WE=0 write_reg=4, RD_SEL=00, SWAP_DATA=1, SWAP_REG = 1
#                  535 IR>: 80124002, PC=000c, R1=00000004, R2=00000002, Data_swapped = 00000002 swap_mux_data=00000002, wb_data=00000002, swap_reg=1, RF_WE=1 write_reg=4, RD_SEL=00, SWAP_DATA=1, SWAP_REG = 1
#                  555 IR>: 52000001, PC=000d, R1=00000004, R2=00000002, Data_swapped = 00000000 swap_mux_data=00000000, wb_data=00000000, swap_reg=0, RF_WE=0 write_reg=0, RD_SEL=00, SWAP_DATA=1, SWAP_REG = 1
# branching relative fail
#                  605 IR>: 00000000, PC=000e, R1=00000004, R2=00000002, Data_swapped = 00000000 swap_mux_data=00000000, wb_data=00000000, swap_reg=0, RF_WE=0 write_reg=0, RD_SEL=00, SWAP_DATA=1, SWAP_REG = 1
#                  655 IR>: 80237001, PC=000f, R1=00000004, R2=00000002, Data_swapped = 00000001 swap_mux_data=00000003, wb_data=00000003, swap_reg=2, RF_WE=0 write_reg=7, RD_SEL=00, SWAP_DATA=1, SWAP_REG = 1
#                  685 IR>: 80237001, PC=000f, R1=00000004, R2=00000002, Data_swapped = 00000001 swap_mux_data=00000003, wb_data=00000003, swap_reg=2, RF_WE=1 write_reg=7, RD_SEL=00, SWAP_DATA=1, SWAP_REG = 1
#                  705 IR>: 43000000, PC=0010, R1=00000004, R2=00000002, Data_swapped = 00000000 swap_mux_data=00000000, wb_data=00000000, swap_reg=0, RF_WE=0 write_reg=0, RD_SEL=00, SWAP_DATA=1, SWAP_REG = 1
# branching absolute fail
#                  755 IR>: 80537001, PC=0011, R1=00000004, R2=00000002, Data_swapped = 00000001 swap_mux_data=ffffffff, wb_data=ffffffff, swap_reg=5, RF_WE=0 write_reg=7, RD_SEL=00, SWAP_DATA=1, SWAP_REG = 1
#                  785 IR>: 80537001, PC=0011, R1=00000004, R2=00000002, Data_swapped = 00000001 swap_mux_data=ffffffff, wb_data=ffffffff, swap_reg=5, RF_WE=1 write_reg=7, RD_SEL=00, SWAP_DATA=1, SWAP_REG = 1
#                  805 IR>: 43000014, PC=0012, R1=00000004, R2=00000002, Data_swapped = 00000000 swap_mux_data=ffffffff, wb_data=ffffffff, swap_reg=0, RF_WE=0 write_reg=0, RD_SEL=00, SWAP_DATA=1, SWAP_REG = 1
# branching absolute
#                  835 IR>: 00000000, PC=0014, R1=00000004, R2=00000002, Data_swapped = 00000000 swap_mux_data=00000000, wb_data=00000000, swap_reg=0, RF_WE=0 write_reg=0, RD_SEL=00, SWAP_DATA=1, SWAP_REG = 1
#                  885 IR>: 00000000, PC=0015, R1=00000004, R2=00000002, Data_swapped = 00000000 swap_mux_data=00000000, wb_data=00000000, swap_reg=0, RF_WE=0 write_reg=0, RD_SEL=00, SWAP_DATA=1, SWAP_REG = 1
#                  935 IR>: 00000000, PC=0016, R1=00000004, R2=00000002, Data_swapped = 00000000 swap_mux_data=00000000, wb_data=00000000, swap_reg=0, RF_WE=0 write_reg=0, RD_SEL=00, SWAP_DATA=1, SWAP_REG = 1
#                  985 IR>: 18010000, PC=0017, R1=00000004, R2=00000002, Data_swapped = 00000004 swap_mux_data=00000004, wb_data=00000004, swap_reg=0, RF_WE=0 write_reg=0, RD_SEL=00, SWAP_DATA=1, SWAP_REG = 1
#                  995 IR>: 18010000, PC=0017, R1=00000004, R2=00000002, Data_swapped = 00000004 swap_mux_data=00000004, wb_data=00000004, swap_reg=0, RF_WE=0 write_reg=1, RD_SEL=01, SWAP_DATA=1, SWAP_REG = 1
#                 1015 IR>: 18010000, PC=0017, R1=00000004, R2=00000002, Data_swapped = 00000004 swap_mux_data=00aaaaaa, wb_data=00aaaaaa, swap_reg=0, RF_WE=0 write_reg=1, RD_SEL=01, SWAP_DATA=1, SWAP_REG = 1
#                 1025 IR>: 18010000, PC=0017, R1=00aaaaaa, R2=00000002, Data_swapped = 00000004 swap_mux_data=00aaaaaa, wb_data=00aaaaaa, swap_reg=0, RF_WE=1 write_reg=1, RD_SEL=01, SWAP_DATA=1, SWAP_REG = 1
#                 1035 IR>: 00000000, PC=0018, R1=00aaaaaa, R2=00000002, Data_swapped = 00000000 swap_mux_data=00aaaaaa, wb_data=00aaaaaa, swap_reg=0, RF_WE=1 write_reg=0, RD_SEL=01, SWAP_DATA=1, SWAP_REG = 1
#                 1045 IR>: 00000000, PC=0018, R1=00aaaaaa, R2=00000002, Data_swapped = 00000000 swap_mux_data=00000000, wb_data=00000000, swap_reg=0, RF_WE=0 write_reg=0, RD_SEL=00, SWAP_DATA=1, SWAP_REG = 1
#                 1085 IR>: 10820001, PC=0019, R1=00aaaaaa, R2=00000002, Data_swapped = 00000002 swap_mux_data=00000002, wb_data=00000002, swap_reg=8, RF_WE=0 write_reg=0, RD_SEL=00, SWAP_DATA=1, SWAP_REG = 1
#                 1095 IR>: 10820001, PC=0019, R1=00aaaaaa, R2=00000002, Data_swapped = 00000002 swap_mux_data=00000002, wb_data=00000002, swap_reg=8, RF_WE=0 write_reg=2, RD_SEL=01, SWAP_DATA=1, SWAP_REG = 1
#                 1105 IR>: 10820001, PC=0019, R1=00aaaaaa, R2=00000002, Data_swapped = 00000002 swap_mux_data=00000001, wb_data=00000001, swap_reg=8, RF_WE=0 write_reg=2, RD_SEL=01, SWAP_DATA=1, SWAP_REG = 1
#                 1115 IR>: 10820001, PC=0019, R1=00aaaaaa, R2=00000002, Data_swapped = 00000002 swap_mux_data=00bbbbbb, wb_data=00bbbbbb, swap_reg=8, RF_WE=0 write_reg=2, RD_SEL=01, SWAP_DATA=1, SWAP_REG = 1
#                 1125 IR>: 10820001, PC=0019, R1=00aaaaaa, R2=00bbbbbb, Data_swapped = 00000002 swap_mux_data=00bbbbbb, wb_data=00bbbbbb, swap_reg=8, RF_WE=1 write_reg=2, RD_SEL=01, SWAP_DATA=1, SWAP_REG = 1
#                 1135 IR>: 00000000, PC=001a, R1=00aaaaaa, R2=00bbbbbb, Data_swapped = 00000000 swap_mux_data=00aaaaaa, wb_data=00aaaaaa, swap_reg=0, RF_WE=1 write_reg=0, RD_SEL=01, SWAP_DATA=1, SWAP_REG = 1
#                 1145 IR>: 00000000, PC=001a, R1=00aaaaaa, R2=00bbbbbb, Data_swapped = 00000000 swap_mux_data=00000000, wb_data=00000000, swap_reg=0, RF_WE=0 write_reg=0, RD_SEL=00, SWAP_DATA=1, SWAP_REG = 1
#                 1185 IR>: 30121000, PC=001b, R1=00aaaaaa, R2=00bbbbbb, Data_swapped = 00bbbbbb swap_mux_data=01666665, wb_data=01666665, swap_reg=1, RF_WE=0 write_reg=1, RD_SEL=00, SWAP_DATA=1, SWAP_REG = 1
#                 1195 IR>: 30121000, PC=001b, R1=00aaaaaa, R2=00bbbbbb, Data_swapped = 00bbbbbb swap_mux_data=00bbbbbb, wb_data=01666665, swap_reg=1, RF_WE=0 write_reg=1, RD_SEL=10, SWAP_DATA=1, SWAP_REG = 1
#                 1205 IR>: 30121000, PC=001b, R1=00bbbbbb, R2=00bbbbbb, Data_swapped = 00aaaaaa swap_mux_data=00aaaaaa, wb_data=01666665, swap_reg=2, RF_WE=1 write_reg=2, RD_SEL=10, SWAP_DATA=0, SWAP_REG = 0
#                 1215 IR>: 30121000, PC=001b, R1=00bbbbbb, R2=00bbbbbb, Data_swapped = 00bbbbbb swap_mux_data=00bbbbbb, wb_data=01777776, swap_reg=2, RF_WE=0 write_reg=2, RD_SEL=10, SWAP_DATA=0, SWAP_REG = 0
#                 1225 IR>: 30121000, PC=001b, R1=00bbbbbb, R2=00bbbbbb, Data_swapped = 00bbbbbb swap_mux_data=00bbbbbb, wb_data=01777776, swap_reg=2, RF_WE=1 write_reg=2, RD_SEL=10, SWAP_DATA=0, SWAP_REG = 0
#                 1235 IR>: 00000000, PC=001c, R1=00bbbbbb, R2=00bbbbbb, Data_swapped = 00000000 swap_mux_data=00000000, wb_data=00000000, swap_reg=0, RF_WE=0 write_reg=0, RD_SEL=10, SWAP_DATA=1, SWAP_REG = 1
#                 1245 IR>: 00000000, PC=001c, R1=00bbbbbb, R2=00bbbbbb, Data_swapped = 00000000 swap_mux_data=00000000, wb_data=00000000, swap_reg=0, RF_WE=0 write_reg=0, RD_SEL=00, SWAP_DATA=1, SWAP_REG = 1
#                 1285 IR>: 20840005, PC=001d, R1=00bbbbbb, R2=00bbbbbb, Data_swapped = 00000002 swap_mux_data=00000002, wb_data=00000002, swap_reg=8, RF_WE=0 write_reg=0, RD_SEL=00, SWAP_DATA=1, SWAP_REG = 1
#                 1305 IR>: 20840005, PC=001d, R1=00bbbbbb, R2=00bbbbbb, Data_swapped = 00000002 swap_mux_data=00000005, wb_data=00000005, swap_reg=8, RF_WE=0 write_reg=0, RD_SEL=00, SWAP_DATA=1, SWAP_REG = 1
#                 1335 IR>: 00000000, PC=001e, R1=00bbbbbb, R2=00bbbbbb, Data_swapped = 00000000 swap_mux_data=00000000, wb_data=00000000, swap_reg=0, RF_WE=0 write_reg=0, RD_SEL=00, SWAP_DATA=1, SWAP_REG = 1
#                 1385 IR>: 28040006, PC=001f, R1=00bbbbbb, R2=00bbbbbb, Data_swapped = 00000002 swap_mux_data=00000000, wb_data=00000000, swap_reg=0, RF_WE=0 write_reg=0, RD_SEL=00, SWAP_DATA=1, SWAP_REG = 1
#                 1435 IR>: 00000000, PC=0020, R1=00bbbbbb, R2=00bbbbbb, Data_swapped = 00000000 swap_mux_data=00000000, wb_data=00000000, swap_reg=0, RF_WE=0 write_reg=0, RD_SEL=00, SWAP_DATA=1, SWAP_REG = 1
#                 1485 IR>: 18010005, PC=0021, R1=00bbbbbb, R2=00bbbbbb, Data_swapped = 00bbbbbb swap_mux_data=00bbbbbb, wb_data=00bbbbbb, swap_reg=0, RF_WE=0 write_reg=0, RD_SEL=00, SWAP_DATA=1, SWAP_REG = 1
#                 1495 IR>: 18010005, PC=0021, R1=00bbbbbb, R2=00bbbbbb, Data_swapped = 00bbbbbb swap_mux_data=00bbbbbb, wb_data=00bbbbbb, swap_reg=0, RF_WE=0 write_reg=1, RD_SEL=01, SWAP_DATA=1, SWAP_REG = 1
#                 1515 IR>: 18010005, PC=0021, R1=00bbbbbb, R2=00bbbbbb, Data_swapped = 00bbbbbb swap_mux_data=00000002, wb_data=00000002, swap_reg=0, RF_WE=0 write_reg=1, RD_SEL=01, SWAP_DATA=1, SWAP_REG = 1
#                 1525 IR>: 18010005, PC=0021, R1=00000002, R2=00bbbbbb, Data_swapped = 00bbbbbb swap_mux_data=00000002, wb_data=00000002, swap_reg=0, RF_WE=1 write_reg=1, RD_SEL=01, SWAP_DATA=1, SWAP_REG = 1
#                 1535 IR>: 00000000, PC=0022, R1=00000002, R2=00bbbbbb, Data_swapped = 00000000 swap_mux_data=00aaaaaa, wb_data=00aaaaaa, swap_reg=0, RF_WE=1 write_reg=0, RD_SEL=01, SWAP_DATA=1, SWAP_REG = 1
#                 1545 IR>: 00000000, PC=0022, R1=00000002, R2=00bbbbbb, Data_swapped = 00000000 swap_mux_data=00000000, wb_data=00000000, swap_reg=0, RF_WE=0 write_reg=0, RD_SEL=00, SWAP_DATA=1, SWAP_REG = 1
#                 1585 IR>: 18020006, PC=0023, R1=00000002, R2=00bbbbbb, Data_swapped = 00bbbbbb swap_mux_data=00000000, wb_data=00000000, swap_reg=0, RF_WE=0 write_reg=0, RD_SEL=00, SWAP_DATA=1, SWAP_REG = 1
#                 1595 IR>: 18020006, PC=0023, R1=00000002, R2=00bbbbbb, Data_swapped = 00bbbbbb swap_mux_data=00000000, wb_data=00000000, swap_reg=0, RF_WE=0 write_reg=2, RD_SEL=01, SWAP_DATA=1, SWAP_REG = 1
#                 1615 IR>: 18020006, PC=0023, R1=00000002, R2=00bbbbbb, Data_swapped = 00bbbbbb swap_mux_data=00000002, wb_data=00000002, swap_reg=0, RF_WE=0 write_reg=2, RD_SEL=01, SWAP_DATA=1, SWAP_REG = 1
#                 1625 IR>: 18020006, PC=0023, R1=00000002, R2=00000002, Data_swapped = 00bbbbbb swap_mux_data=00000002, wb_data=00000002, swap_reg=0, RF_WE=1 write_reg=2, RD_SEL=01, SWAP_DATA=1, SWAP_REG = 1
#                 1635 IR>: 00000000, PC=0024, R1=00000002, R2=00000002, Data_swapped = 00000000 swap_mux_data=00aaaaaa, wb_data=00aaaaaa, swap_reg=0, RF_WE=1 write_reg=0, RD_SEL=01, SWAP_DATA=1, SWAP_REG = 1
#                 1645 IR>: 00000000, PC=0024, R1=00000002, R2=00000002, Data_swapped = 00000000 swap_mux_data=00000000, wb_data=00000000, swap_reg=0, RF_WE=0 write_reg=0, RD_SEL=00, SWAP_DATA=1, SWAP_REG = 1
#                 1685 IR>: f0000000, PC=0025, R1=00000002, R2=00000002, Data_swapped = 00000000 swap_mux_data=00000000, wb_data=00000000, swap_reg=0, RF_WE=0 write_reg=0, RD_SEL=00, SWAP_DATA=1, SWAP_REG = 1
# Halt.
# Break in Module ctrl at ctrl.v line 68
# Stopped at ctrl.v line 68 
