transcript
# vsim -c -novopt sisc_tb 
# //  ModelSim SE-64 6.5b_1 Jul 14 2009 Linux 3.11.10-11-desktop
# //
# //  Copyright 1991-2009 Mentor Graphics Corporation
# //              All Rights Reserved.
# //
# //  THIS WORK CONTAINS TRADE SECRET AND 
# //  PROPRIETARY INFORMATION WHICH IS THE PROPERTY
# //  OF MENTOR GRAPHICS CORPORATION OR ITS LICENSORS
# //  AND IS SUBJECT TO LICENSE TERMS.
# //
# Loading work.sisc_tb
# Loading work.sisc
# Loading work.mux4
# Loading work.rf
# Loading work.alu
# Loading work.mux32
# Loading work.statreg
# Refreshing /nfs/s-l011/local/vol01/j/jbdye/Documents/VerilogProject/work.ctrl
# Loading work.ctrl
# Loading work.pc
# Loading work.im
# Loading work.br
# Loading work.sisc_test
#                    0   IR>: 00000000, PC=0000, R1=00000000, R2=00000000, R3=00000000, RD_SEL=x, ALU_OP=xx, WB_SEL=x, RF_WE=x, BR_SEL=x, PC_WRITE=1, PC_SEL=x Add=0001, STAT=0000,PC_IN=0000000000000001
#                    5   IR>: 00000000, PC=0000, R1=00000000, R2=00000000, R3=00000000, RD_SEL=0, ALU_OP=00, WB_SEL=0, RF_WE=0, BR_SEL=0, PC_WRITE=1, PC_SEL=0 Add=0001, STAT=0000,PC_IN=0000000000000001
#                   55   IR>: 00000000, PC=0000, R1=00000000, R2=00000000, R3=00000000, RD_SEL=0, ALU_OP=00, WB_SEL=0, RF_WE=0, BR_SEL=0, PC_WRITE=0, PC_SEL=0 Add=0001, STAT=0000,PC_IN=0000000000000001
#                   95   IR>: 88010001, PC=0001, R1=00000000, R2=00000000, R3=00000000, RD_SEL=0, ALU_OP=00, WB_SEL=0, RF_WE=0, BR_SEL=0, PC_WRITE=1, PC_SEL=0 Add=0003, STAT=0001,PC_IN=0000000000000010
#                  105   IR>: 88010001, PC=0001, R1=00000000, R2=00000000, R3=00000000, RD_SEL=1, ALU_OP=00, WB_SEL=0, RF_WE=0, BR_SEL=0, PC_WRITE=0, PC_SEL=0 Add=0003, STAT=0001,PC_IN=0000000000000010
# ALU 01
#                  115   IR>: 88010001, PC=0001, R1=00000000, R2=00000000, R3=00000000, RD_SEL=1, ALU_OP=01, WB_SEL=0, RF_WE=0, BR_SEL=0, PC_WRITE=0, PC_SEL=0 Add=0003, STAT=0000,PC_IN=0000000000000010
#                  125   IR>: 88010001, PC=0001, R1=00000001, R2=00000000, R3=00000000, RD_SEL=1, ALU_OP=01, WB_SEL=1, RF_WE=1, BR_SEL=1, PC_WRITE=0, PC_SEL=0 Add=0001, STAT=0000,PC_IN=0000000000000010
#                  145   IR>: 80112001, PC=0002, R1=00000001, R2=00000000, R3=00000000, RD_SEL=1, ALU_OP=00, WB_SEL=0, RF_WE=0, BR_SEL=0, PC_WRITE=1, PC_SEL=0 Add=2004, STAT=0000,PC_IN=0000000000000011
#                  155   IR>: 80112001, PC=0002, R1=00000001, R2=00000000, R3=00000000, RD_SEL=0, ALU_OP=00, WB_SEL=0, RF_WE=0, BR_SEL=0, PC_WRITE=0, PC_SEL=0 Add=2004, STAT=0000,PC_IN=0000000000000011
# ALU 00
#                  175   IR>: 80112001, PC=0002, R1=00000001, R2=00000002, R3=00000000, RD_SEL=0, ALU_OP=00, WB_SEL=1, RF_WE=1, BR_SEL=1, PC_WRITE=0, PC_SEL=0 Add=2001, STAT=0000,PC_IN=0000000000000011
#                  195   IR>: 80213002, PC=0003, R1=00000001, R2=00000002, R3=00000000, RD_SEL=0, ALU_OP=00, WB_SEL=0, RF_WE=0, BR_SEL=0, PC_WRITE=1, PC_SEL=0 Add=3006, STAT=0000,PC_IN=0000000000000100
#                  205   IR>: 80213002, PC=0003, R1=00000001, R2=00000002, R3=00000000, RD_SEL=0, ALU_OP=00, WB_SEL=0, RF_WE=0, BR_SEL=0, PC_WRITE=0, PC_SEL=0 Add=3006, STAT=0000,PC_IN=0000000000000100
# ALU 00
#                  225   IR>: 80213002, PC=0003, R1=00000001, R2=00000002, R3=00000001, RD_SEL=0, ALU_OP=00, WB_SEL=1, RF_WE=1, BR_SEL=1, PC_WRITE=0, PC_SEL=0 Add=3002, STAT=0000,PC_IN=0000000000000100
#                  245   IR>: 60000009, PC=0004, R1=00000001, R2=00000002, R3=00000001, RD_SEL=0, ALU_OP=00, WB_SEL=0, RF_WE=0, BR_SEL=0, PC_WRITE=1, PC_SEL=0 Add=000e, STAT=0000,PC_IN=0000000000000101
#                  255   IR>: 60000009, PC=0004, R1=00000001, R2=00000002, R3=00000001, RD_SEL=0, ALU_OP=00, WB_SEL=0, RF_WE=0, BR_SEL=0, PC_WRITE=0, PC_SEL=0 Add=000e, STAT=0000,PC_IN=0000000000000101
#                  265   IR>: 88010003, PC=0005, R1=00000001, R2=00000002, R3=00000001, RD_SEL=0, ALU_OP=00, WB_SEL=0, RF_WE=0, BR_SEL=1, PC_WRITE=1, PC_SEL=1 Add=0003, STAT=0000,PC_IN=0000000000000011
#                  275   IR>: 88010003, PC=0005, R1=00000001, R2=00000002, R3=00000001, RD_SEL=0, ALU_OP=00, WB_SEL=0, RF_WE=0, BR_SEL=0, PC_WRITE=1, PC_SEL=0 Add=0009, STAT=0000,PC_IN=0000000000000110
#                  285   IR>: 88010003, PC=0005, R1=00000001, R2=00000002, R3=00000001, RD_SEL=1, ALU_OP=00, WB_SEL=0, RF_WE=0, BR_SEL=0, PC_WRITE=0, PC_SEL=0 Add=0009, STAT=0000,PC_IN=0000000000000110
# ALU 01
#                  295   IR>: 88010003, PC=0005, R1=00000001, R2=00000002, R3=00000001, RD_SEL=1, ALU_OP=01, WB_SEL=0, RF_WE=0, BR_SEL=0, PC_WRITE=0, PC_SEL=0 Add=0009, STAT=0000,PC_IN=0000000000000110
#                  305   IR>: 88010003, PC=0005, R1=00000003, R2=00000002, R3=00000001, RD_SEL=1, ALU_OP=01, WB_SEL=1, RF_WE=1, BR_SEL=1, PC_WRITE=0, PC_SEL=0 Add=0003, STAT=0000,PC_IN=0000000000000110
#                  325   IR>: 88020002, PC=0006, R1=00000003, R2=00000002, R3=00000001, RD_SEL=1, ALU_OP=00, WB_SEL=0, RF_WE=0, BR_SEL=0, PC_WRITE=1, PC_SEL=0 Add=0009, STAT=1010,PC_IN=0000000000000111
#                  335   IR>: 88020002, PC=0006, R1=00000003, R2=00000002, R3=00000001, RD_SEL=1, ALU_OP=00, WB_SEL=0, RF_WE=0, BR_SEL=0, PC_WRITE=0, PC_SEL=0 Add=0009, STAT=1010,PC_IN=0000000000000111
# ALU 01
#                  345   IR>: 88020002, PC=0006, R1=00000003, R2=00000002, R3=00000001, RD_SEL=1, ALU_OP=01, WB_SEL=0, RF_WE=0, BR_SEL=0, PC_WRITE=0, PC_SEL=0 Add=0009, STAT=0000,PC_IN=0000000000000111
#                  355   IR>: 88020002, PC=0006, R1=00000003, R2=00000002, R3=00000001, RD_SEL=1, ALU_OP=01, WB_SEL=1, RF_WE=1, BR_SEL=1, PC_WRITE=0, PC_SEL=0 Add=0002, STAT=0000,PC_IN=0000000000000111
#                  375   IR>: 80213002, PC=0007, R1=00000003, R2=00000002, R3=00000001, RD_SEL=1, ALU_OP=00, WB_SEL=0, RF_WE=0, BR_SEL=0, PC_WRITE=1, PC_SEL=0 Add=300a, STAT=1010,PC_IN=0000000000001000
#                  385   IR>: 80213002, PC=0007, R1=00000003, R2=00000002, R3=00000001, RD_SEL=0, ALU_OP=00, WB_SEL=0, RF_WE=0, BR_SEL=0, PC_WRITE=0, PC_SEL=0 Add=300a, STAT=1010,PC_IN=0000000000001000
# ALU 00
#                  405   IR>: 80213002, PC=0007, R1=00000003, R2=00000002, R3=ffffffff, RD_SEL=0, ALU_OP=00, WB_SEL=1, RF_WE=1, BR_SEL=1, PC_WRITE=0, PC_SEL=0 Add=3002, STAT=1010,PC_IN=0000000000001000
#                  425   IR>: 60000000, PC=0008, R1=00000003, R2=00000002, R3=ffffffff, RD_SEL=0, ALU_OP=00, WB_SEL=0, RF_WE=0, BR_SEL=0, PC_WRITE=1, PC_SEL=0 Add=0009, STAT=1010,PC_IN=0000000000001001
#                  435   IR>: 60000000, PC=0008, R1=00000003, R2=00000002, R3=ffffffff, RD_SEL=0, ALU_OP=00, WB_SEL=0, RF_WE=0, BR_SEL=0, PC_WRITE=0, PC_SEL=0 Add=0009, STAT=1010,PC_IN=0000000000001001
#                  445   IR>: f0000000, PC=0009, R1=00000003, R2=00000002, R3=ffffffff, RD_SEL=0, ALU_OP=00, WB_SEL=0, RF_WE=0, BR_SEL=1, PC_WRITE=1, PC_SEL=1 Add=0000, STAT=1010,PC_IN=0000000000000000
# Halt.
# Break in Module ctrl at ctrl.v line 67
# Stopped at ctrl.v line 67 
