transcript
# vsim -c -novopt sisc_tb 
# //  ModelSim SE-64 6.5b_1 Jul 14 2009 Linux 3.11.10-17-desktop
# //
# //  Copyright 1991-2009 Mentor Graphics Corporation
# //              All Rights Reserved.
# //
# //  THIS WORK CONTAINS TRADE SECRET AND 
# //  PROPRIETARY INFORMATION WHICH IS THE PROPERTY
# //  OF MENTOR GRAPHICS CORPORATION OR ITS LICENSORS
# //  AND IS SUBJECT TO LICENSE TERMS.
# //
# Refreshing /nfs/s-l011/local/vol02/m/mfina/carch/VerilogProject/work.sisc_tb
# Loading work.sisc_tb
# Refreshing /nfs/s-l011/local/vol02/m/mfina/carch/VerilogProject/work.sisc
# Loading work.sisc
# Refreshing /nfs/s-l011/local/vol02/m/mfina/carch/VerilogProject/work.mux4
# Loading work.mux4
# Refreshing /nfs/s-l011/local/vol02/m/mfina/carch/VerilogProject/work.rf
# Loading work.rf
# Refreshing /nfs/s-l011/local/vol02/m/mfina/carch/VerilogProject/work.alu
# Loading work.alu
# Refreshing /nfs/s-l011/local/vol02/m/mfina/carch/VerilogProject/work.mux32
# Loading work.mux32
# Refreshing /nfs/s-l011/local/vol02/m/mfina/carch/VerilogProject/work.statreg
# Loading work.statreg
# Refreshing /nfs/s-l011/local/vol02/m/mfina/carch/VerilogProject/work.ctrl
# Loading work.ctrl
# Refreshing /nfs/s-l011/local/vol02/m/mfina/carch/VerilogProject/work.sisc_test
# Loading work.sisc_test
#                    0   IR>: xxxxxxxx, R1=00000000, R2=00000000, R3=00000000, RD_SEL=x, ALU_OP=xx, WB_SEL=x, RF_WE=x
#                   25   IR>: 00000000, R1=00000000, R2=00000000, R3=00000000, RD_SEL=0, ALU_OP=00, WB_SEL=0, RF_WE=0
#                   75   IR>: 8802000a, R1=00000000, R2=00000000, R3=00000000, RD_SEL=0, ALU_OP=00, WB_SEL=0, RF_WE=0
#                   85   IR>: 8802000a, R1=00000000, R2=00000000, R3=00000000, RD_SEL=1, ALU_OP=00, WB_SEL=0, RF_WE=0
#                  105   IR>: 8802000a, R1=00000000, R2=00000000, R3=00000000, RD_SEL=1, ALU_OP=01, WB_SEL=0, RF_WE=0
#                  115   IR>: 8802000a, R1=00000000, R2=0000000a, R3=00000000, RD_SEL=1, ALU_OP=01, WB_SEL=0, RF_WE=1
#                  125   IR>: 88030007, R1=00000000, R2=0000000a, R3=00000000, RD_SEL=1, ALU_OP=01, WB_SEL=0, RF_WE=1
#                  135   IR>: 88030007, R1=00000000, R2=0000000a, R3=00000000, RD_SEL=1, ALU_OP=00, WB_SEL=0, RF_WE=0
#                  155   IR>: 88030007, R1=00000000, R2=0000000a, R3=00000000, RD_SEL=1, ALU_OP=01, WB_SEL=0, RF_WE=0
#                  165   IR>: 88030007, R1=00000000, R2=0000000a, R3=00000007, RD_SEL=1, ALU_OP=01, WB_SEL=0, RF_WE=1
#                  175   IR>: 80231002, R1=00000000, R2=0000000a, R3=00000007, RD_SEL=1, ALU_OP=01, WB_SEL=0, RF_WE=1
#                  185   IR>: 80231002, R1=00000000, R2=0000000a, R3=00000007, RD_SEL=0, ALU_OP=00, WB_SEL=0, RF_WE=0
#                  215   IR>: 80231002, R1=00000003, R2=0000000a, R3=00000007, RD_SEL=0, ALU_OP=00, WB_SEL=0, RF_WE=1
#                  225   IR>: 80101004, R1=00000003, R2=0000000a, R3=00000007, RD_SEL=0, ALU_OP=00, WB_SEL=0, RF_WE=1
#                  235   IR>: 80101004, R1=00000003, R2=0000000a, R3=00000007, RD_SEL=0, ALU_OP=00, WB_SEL=0, RF_WE=0
#                  265   IR>: 80101004, R1=fffffffc, R2=0000000a, R3=00000007, RD_SEL=0, ALU_OP=00, WB_SEL=0, RF_WE=1
#                  275   IR>: 80231005, R1=fffffffc, R2=0000000a, R3=00000007, RD_SEL=0, ALU_OP=00, WB_SEL=0, RF_WE=1
#                  285   IR>: 80231005, R1=fffffffc, R2=0000000a, R3=00000007, RD_SEL=0, ALU_OP=00, WB_SEL=0, RF_WE=0
#                  315   IR>: 80231005, R1=0000000f, R2=0000000a, R3=00000007, RD_SEL=0, ALU_OP=00, WB_SEL=0, RF_WE=1
#                  325   IR>: 80231006, R1=0000000f, R2=0000000a, R3=00000007, RD_SEL=0, ALU_OP=00, WB_SEL=0, RF_WE=1
#                  335   IR>: 80231006, R1=0000000f, R2=0000000a, R3=00000007, RD_SEL=0, ALU_OP=00, WB_SEL=0, RF_WE=0
#                  365   IR>: 80231006, R1=00000002, R2=0000000a, R3=00000007, RD_SEL=0, ALU_OP=00, WB_SEL=0, RF_WE=1
#                  375   IR>: 80231007, R1=00000002, R2=0000000a, R3=00000007, RD_SEL=0, ALU_OP=00, WB_SEL=0, RF_WE=1
#                  385   IR>: 80231007, R1=00000002, R2=0000000a, R3=00000007, RD_SEL=0, ALU_OP=00, WB_SEL=0, RF_WE=0
#                  415   IR>: 80231007, R1=0000000d, R2=0000000a, R3=00000007, RD_SEL=0, ALU_OP=00, WB_SEL=0, RF_WE=1
#                  425   IR>: 88020005, R1=0000000d, R2=0000000a, R3=00000007, RD_SEL=0, ALU_OP=00, WB_SEL=0, RF_WE=1
#                  435   IR>: 88020005, R1=0000000d, R2=0000000a, R3=00000007, RD_SEL=1, ALU_OP=00, WB_SEL=0, RF_WE=0
#                  455   IR>: 88020005, R1=0000000d, R2=0000000a, R3=00000007, RD_SEL=1, ALU_OP=01, WB_SEL=0, RF_WE=0
#                  465   IR>: 88020005, R1=0000000d, R2=00000005, R3=00000007, RD_SEL=1, ALU_OP=01, WB_SEL=0, RF_WE=1
#                  475   IR>: 80321008, R1=0000000d, R2=00000005, R3=00000007, RD_SEL=1, ALU_OP=01, WB_SEL=0, RF_WE=1
#                  485   IR>: 80321008, R1=0000000d, R2=00000005, R3=00000007, RD_SEL=0, ALU_OP=00, WB_SEL=0, RF_WE=0
#                  515   IR>: 80321008, R1=38000000, R2=00000005, R3=00000007, RD_SEL=0, ALU_OP=00, WB_SEL=0, RF_WE=1
#                  525   IR>: 80321009, R1=38000000, R2=00000005, R3=00000007, RD_SEL=0, ALU_OP=00, WB_SEL=0, RF_WE=1
#                  535   IR>: 80321009, R1=38000000, R2=00000005, R3=00000007, RD_SEL=0, ALU_OP=00, WB_SEL=0, RF_WE=0
#                  565   IR>: 80321009, R1=000000e0, R2=00000005, R3=00000007, RD_SEL=0, ALU_OP=00, WB_SEL=0, RF_WE=1
#                  575   IR>: 8032100a, R1=000000e0, R2=00000005, R3=00000007, RD_SEL=0, ALU_OP=00, WB_SEL=0, RF_WE=1
#                  585   IR>: 8032100a, R1=000000e0, R2=00000005, R3=00000007, RD_SEL=0, ALU_OP=00, WB_SEL=0, RF_WE=0
#                  615   IR>: 8032100a, R1=00000000, R2=00000005, R3=00000007, RD_SEL=0, ALU_OP=00, WB_SEL=0, RF_WE=1
#                  625   IR>: 8032100b, R1=00000000, R2=00000005, R3=00000007, RD_SEL=0, ALU_OP=00, WB_SEL=0, RF_WE=1
#                  635   IR>: 8032100b, R1=00000000, R2=00000005, R3=00000007, RD_SEL=0, ALU_OP=00, WB_SEL=0, RF_WE=0
#                  665   IR>: 8032100b, R1=000000e0, R2=00000005, R3=00000007, RD_SEL=0, ALU_OP=00, WB_SEL=0, RF_WE=1
#                  675   IR>: f0000000, R1=000000e0, R2=00000005, R3=00000007, RD_SEL=0, ALU_OP=00, WB_SEL=0, RF_WE=1
# Halt.
# Break in Module ctrl at ctrl.v line 63
# Stopped at ctrl.v line 63 
