transcript
# vsim -c -novopt sisc_tb 
# //  ModelSim SE-64 6.5b_1 Jul 14 2009 Linux 3.7.10-1.28-desktop
# //
# //  Copyright 1991-2009 Mentor Graphics Corporation
# //              All Rights Reserved.
# //
# //  THIS WORK CONTAINS TRADE SECRET AND 
# //  PROPRIETARY INFORMATION WHICH IS THE PROPERTY
# //  OF MENTOR GRAPHICS CORPORATION OR ITS LICENSORS
# //  AND IS SUBJECT TO LICENSE TERMS.
# //
# Refreshing /nfs/s-l011/local/vol02/m/mfina/carch/VerilogProject/work.sisc_tb
# Loading work.sisc_tb
# Refreshing /nfs/s-l011/local/vol02/m/mfina/carch/VerilogProject/work.sisc
# Loading work.sisc
# Refreshing /nfs/s-l011/local/vol02/m/mfina/carch/VerilogProject/work.mux4
# Loading work.mux4
# Refreshing /nfs/s-l011/local/vol02/m/mfina/carch/VerilogProject/work.rf
# Loading work.rf
# Refreshing /nfs/s-l011/local/vol02/m/mfina/carch/VerilogProject/work.alu
# Loading work.alu
# Refreshing /nfs/s-l011/local/vol02/m/mfina/carch/VerilogProject/work.mux32
# Loading work.mux32
# Refreshing /nfs/s-l011/local/vol02/m/mfina/carch/VerilogProject/work.statreg
# Loading work.statreg
# Refreshing /nfs/s-l011/local/vol02/m/mfina/carch/VerilogProject/work.ctrl
# Loading work.ctrl
# Refreshing /nfs/s-l011/local/vol02/m/mfina/carch/VerilogProject/work.pc
# Loading work.pc
# Refreshing /nfs/s-l011/local/vol02/m/mfina/carch/VerilogProject/work.im
# Loading work.im
# Refreshing /nfs/s-l011/local/vol02/m/mfina/carch/VerilogProject/work.br
# Loading work.br
# Refreshing /nfs/s-l011/local/vol02/m/mfina/carch/VerilogProject/work.sisc_test
# Loading work.sisc_test
#                    0   IR>: 00000000, PC=0000, R1=00000000, R2=00000000, R3=00000000, RD_SEL=x, ALU_OP=xx, WB_SEL=x, RF_WE=x, BR_SEL=x, PC_WRITE=1, PC_SEL=x Add=0001, STAT=0000,PC_IN=0000000000000001
#                    5   IR>: 00000000, PC=0000, R1=00000000, R2=00000000, R3=00000000, RD_SEL=0, ALU_OP=00, WB_SEL=0, RF_WE=0, BR_SEL=0, PC_WRITE=1, PC_SEL=0 Add=0001, STAT=0000,PC_IN=0000000000000001
#                   55   IR>: 00000000, PC=0000, R1=00000000, R2=00000000, R3=00000000, RD_SEL=0, ALU_OP=00, WB_SEL=0, RF_WE=0, BR_SEL=0, PC_WRITE=0, PC_SEL=0 Add=0001, STAT=0000,PC_IN=0000000000000001
#                   95   IR>: 88010001, PC=0001, R1=00000000, R2=00000000, R3=00000000, RD_SEL=0, ALU_OP=00, WB_SEL=0, RF_WE=0, BR_SEL=0, PC_WRITE=1, PC_SEL=0 Add=0003, STAT=0001,PC_IN=0000000000000010
#                  105   IR>: 88010001, PC=0001, R1=00000000, R2=00000000, R3=00000000, RD_SEL=1, ALU_OP=00, WB_SEL=0, RF_WE=0, BR_SEL=0, PC_WRITE=0, PC_SEL=0 Add=0003, STAT=0001,PC_IN=0000000000000010
#                  115   IR>: 88010001, PC=0001, R1=00000000, R2=00000000, R3=00000000, RD_SEL=1, ALU_OP=01, WB_SEL=0, RF_WE=0, BR_SEL=0, PC_WRITE=0, PC_SEL=0 Add=0003, STAT=0000,PC_IN=0000000000000010
#                  125   IR>: 88010001, PC=0001, R1=00000001, R2=00000000, R3=00000000, RD_SEL=1, ALU_OP=01, WB_SEL=0, RF_WE=1, BR_SEL=0, PC_WRITE=0, PC_SEL=0 Add=0003, STAT=0000,PC_IN=0000000000000010
#                  145   IR>: 80112001, PC=0002, R1=00000001, R2=00000000, R3=00000000, RD_SEL=1, ALU_OP=00, WB_SEL=0, RF_WE=0, BR_SEL=0, PC_WRITE=1, PC_SEL=0 Add=2004, STAT=0000,PC_IN=0000000000000011
#                  155   IR>: 80112001, PC=0002, R1=00000001, R2=00000000, R3=00000000, RD_SEL=0, ALU_OP=00, WB_SEL=0, RF_WE=0, BR_SEL=0, PC_WRITE=0, PC_SEL=0 Add=2004, STAT=0000,PC_IN=0000000000000011
#                  175   IR>: 80112001, PC=0002, R1=00000001, R2=00000002, R3=00000000, RD_SEL=0, ALU_OP=00, WB_SEL=0, RF_WE=1, BR_SEL=0, PC_WRITE=0, PC_SEL=0 Add=2004, STAT=0000,PC_IN=0000000000000011
#                  195   IR>: 80213002, PC=0003, R1=00000001, R2=00000002, R3=00000000, RD_SEL=0, ALU_OP=00, WB_SEL=0, RF_WE=0, BR_SEL=0, PC_WRITE=1, PC_SEL=0 Add=3006, STAT=0000,PC_IN=0000000000000100
#                  205   IR>: 80213002, PC=0003, R1=00000001, R2=00000002, R3=00000000, RD_SEL=0, ALU_OP=00, WB_SEL=0, RF_WE=0, BR_SEL=0, PC_WRITE=0, PC_SEL=0 Add=3006, STAT=0000,PC_IN=0000000000000100
#                  225   IR>: 80213002, PC=0003, R1=00000001, R2=00000002, R3=00000001, RD_SEL=0, ALU_OP=00, WB_SEL=0, RF_WE=1, BR_SEL=0, PC_WRITE=0, PC_SEL=0 Add=3006, STAT=0000,PC_IN=0000000000000100
#                  245   IR>: 60000009, PC=0004, R1=00000001, R2=00000002, R3=00000001, RD_SEL=0, ALU_OP=00, WB_SEL=0, RF_WE=0, BR_SEL=0, PC_WRITE=1, PC_SEL=0 Add=000e, STAT=0000,PC_IN=0000000000000101
#                  255   IR>: 60000009, PC=0004, R1=00000001, R2=00000002, R3=00000001, RD_SEL=0, ALU_OP=00, WB_SEL=0, RF_WE=0, BR_SEL=0, PC_WRITE=0, PC_SEL=0 Add=000e, STAT=0000,PC_IN=0000000000000101
# hello, MM=0000
#                  265 im here, Present State-4
#                  265   IR>: 60000009, PC=0004, R1=00000001, R2=00000002, R3=00000001, RD_SEL=0, ALU_OP=00, WB_SEL=0, RF_WE=0, BR_SEL=1, PC_WRITE=0, PC_SEL=1 Add=0009, STAT=0000,PC_IN=0000000000001001
#                  275   IR>: f0000000, PC=0009, R1=00000001, R2=00000002, R3=00000001, RD_SEL=0, ALU_OP=10, WB_SEL=0, RF_WE=0, BR_SEL=1, PC_WRITE=1, PC_SEL=1 Add=0000, STAT=0000,PC_IN=0000000000000000
# Halt.
# Break in Module ctrl at ctrl.v line 80
# Stopped at ctrl.v line 80 
