transcript
# vsim -c -novopt sisc_tb 
# //  ModelSim SE-64 6.5b_1 Jul 14 2009 Linux 3.11.10-11-desktop
# //
# //  Copyright 1991-2009 Mentor Graphics Corporation
# //              All Rights Reserved.
# //
# //  THIS WORK CONTAINS TRADE SECRET AND 
# //  PROPRIETARY INFORMATION WHICH IS THE PROPERTY
# //  OF MENTOR GRAPHICS CORPORATION OR ITS LICENSORS
# //  AND IS SUBJECT TO LICENSE TERMS.
# //
# Refreshing /nfs/s-l011/local/vol02/m/mfina/carch/VerilogProject/work.sisc_tb
# Loading work.sisc_tb
# Refreshing /nfs/s-l011/local/vol02/m/mfina/carch/VerilogProject/work.sisc
# Loading work.sisc
# Refreshing /nfs/s-l011/local/vol02/m/mfina/carch/VerilogProject/work.mux32
# Loading work.mux32
# Refreshing /nfs/s-l011/local/vol02/m/mfina/carch/VerilogProject/work.swap_data
# Loading work.swap_data
# Refreshing /nfs/s-l011/local/vol02/m/mfina/carch/VerilogProject/work.swap_reg
# Loading work.swap_reg
# Refreshing /nfs/s-l011/local/vol02/m/mfina/carch/VerilogProject/work.mux16
# Loading work.mux16
# Refreshing /nfs/s-l011/local/vol02/m/mfina/carch/VerilogProject/work.dm
# Loading work.dm
# Refreshing /nfs/s-l011/local/vol02/m/mfina/carch/VerilogProject/work.mux4
# Loading work.mux4
# Refreshing /nfs/s-l011/local/vol02/m/mfina/carch/VerilogProject/work.rf
# Loading work.rf
# Refreshing /nfs/s-l011/local/vol02/m/mfina/carch/VerilogProject/work.alu
# Loading work.alu
# Refreshing /nfs/s-l011/local/vol02/m/mfina/carch/VerilogProject/work.statreg
# Loading work.statreg
# Refreshing /nfs/s-l011/local/vol02/m/mfina/carch/VerilogProject/work.ctrl
# Loading work.ctrl
# Refreshing /nfs/s-l011/local/vol02/m/mfina/carch/VerilogProject/work.pc
# Loading work.pc
# Refreshing /nfs/s-l011/local/vol02/m/mfina/carch/VerilogProject/work.im
# Loading work.im
# Refreshing /nfs/s-l011/local/vol02/m/mfina/carch/VerilogProject/work.br
# Loading work.br
# Refreshing /nfs/s-l011/local/vol02/m/mfina/carch/VerilogProject/work.sisc_test
# Loading work.sisc_test
#                    0  IR>: 88090001, PC=0000, R1=00000000, R2=00000000, R3=00000000, R4=00000000, R5=00000000, R9=00000000, R10=00000000, MEM1=00000005, MEM2=fffffffe, MEM3=00000012, MEM4=0000000a, MEM5=00000000, MEM6=fffffff9
#                   75  IR>: 88090001, PC=0000, R1=00000000, R2=00000000, R3=00000000, R4=00000000, R5=00000000, R9=00000001, R10=00000000, MEM1=00000005, MEM2=fffffffe, MEM3=00000012, MEM4=0000000a, MEM5=00000000, MEM6=fffffff9
#                   95  IR>: 88040001, PC=0001, R1=00000000, R2=00000000, R3=00000000, R4=00000000, R5=00000000, R9=00000001, R10=00000000, MEM1=00000005, MEM2=fffffffe, MEM3=00000012, MEM4=0000000a, MEM5=00000000, MEM6=fffffff9
#                  125  IR>: 88040001, PC=0001, R1=00000000, R2=00000000, R3=00000000, R4=00000001, R5=00000000, R9=00000001, R10=00000000, MEM1=00000005, MEM2=fffffffe, MEM3=00000012, MEM4=0000000a, MEM5=00000000, MEM6=fffffff9
#                  145  IR>: 88050002, PC=0002, R1=00000000, R2=00000000, R3=00000000, R4=00000001, R5=00000000, R9=00000001, R10=00000000, MEM1=00000005, MEM2=fffffffe, MEM3=00000012, MEM4=0000000a, MEM5=00000000, MEM6=fffffff9
#                  175  IR>: 88050002, PC=0002, R1=00000000, R2=00000000, R3=00000000, R4=00000001, R5=00000002, R9=00000001, R10=00000000, MEM1=00000005, MEM2=fffffffe, MEM3=00000012, MEM4=0000000a, MEM5=00000000, MEM6=fffffff9
#                  195  IR>: 180a0000, PC=0003, R1=00000000, R2=00000000, R3=00000000, R4=00000001, R5=00000002, R9=00000001, R10=00000000, MEM1=00000005, MEM2=fffffffe, MEM3=00000012, MEM4=0000000a, MEM5=00000000, MEM6=fffffff9
#                  235  IR>: 180a0000, PC=0003, R1=00000000, R2=00000000, R3=00000000, R4=00000001, R5=00000002, R9=00000001, R10=00000006, MEM1=00000005, MEM2=fffffffe, MEM3=00000012, MEM4=0000000a, MEM5=00000000, MEM6=fffffff9
#                  245  IR>: 18010000, PC=0004, R1=00000000, R2=00000000, R3=00000000, R4=00000001, R5=00000002, R9=00000001, R10=00000006, MEM1=00000005, MEM2=fffffffe, MEM3=00000012, MEM4=0000000a, MEM5=00000000, MEM6=fffffff9
#                  285  IR>: 18010000, PC=0004, R1=00000006, R2=00000000, R3=00000000, R4=00000001, R5=00000002, R9=00000001, R10=00000006, MEM1=00000005, MEM2=fffffffe, MEM3=00000012, MEM4=0000000a, MEM5=00000000, MEM6=fffffff9
#                  295  IR>: 00000000, PC=0005, R1=00000006, R2=00000000, R3=00000000, R4=00000001, R5=00000002, R9=00000001, R10=00000006, MEM1=00000005, MEM2=fffffffe, MEM3=00000012, MEM4=0000000a, MEM5=00000000, MEM6=fffffff9
#                  345  IR>: 80191001, PC=0006, R1=00000006, R2=00000000, R3=00000000, R4=00000001, R5=00000002, R9=00000001, R10=00000006, MEM1=00000005, MEM2=fffffffe, MEM3=00000012, MEM4=0000000a, MEM5=00000000, MEM6=fffffff9
#                  375  IR>: 80191001, PC=0006, R1=00000007, R2=00000000, R3=00000000, R4=00000001, R5=00000002, R9=00000001, R10=00000006, MEM1=00000005, MEM2=fffffffe, MEM3=00000012, MEM4=0000000a, MEM5=00000000, MEM6=fffffff9
#                  395  IR>: 80a9a002, PC=0007, R1=00000007, R2=00000000, R3=00000000, R4=00000001, R5=00000002, R9=00000001, R10=00000006, MEM1=00000005, MEM2=fffffffe, MEM3=00000012, MEM4=0000000a, MEM5=00000000, MEM6=fffffff9
#                  425  IR>: 80a9a002, PC=0007, R1=00000007, R2=00000000, R3=00000000, R4=00000001, R5=00000002, R9=00000001, R10=00000005, MEM1=00000005, MEM2=fffffffe, MEM3=00000012, MEM4=0000000a, MEM5=00000000, MEM6=fffffff9
#                  445  IR>: 80191002, PC=0008, R1=00000007, R2=00000000, R3=00000000, R4=00000001, R5=00000002, R9=00000001, R10=00000005, MEM1=00000005, MEM2=fffffffe, MEM3=00000012, MEM4=0000000a, MEM5=00000000, MEM6=fffffff9
#                  475  IR>: 80191002, PC=0008, R1=00000006, R2=00000000, R3=00000000, R4=00000001, R5=00000002, R9=00000001, R10=00000005, MEM1=00000005, MEM2=fffffffe, MEM3=00000012, MEM4=0000000a, MEM5=00000000, MEM6=fffffff9
#                  495  IR>: 10420000, PC=0009, R1=00000006, R2=00000000, R3=00000000, R4=00000001, R5=00000002, R9=00000001, R10=00000005, MEM1=00000005, MEM2=fffffffe, MEM3=00000012, MEM4=0000000a, MEM5=00000000, MEM6=fffffff9
#                  535  IR>: 10420000, PC=0009, R1=00000006, R2=00000005, R3=00000000, R4=00000001, R5=00000002, R9=00000001, R10=00000005, MEM1=00000005, MEM2=fffffffe, MEM3=00000012, MEM4=0000000a, MEM5=00000000, MEM6=fffffff9
#                  545  IR>: 10530000, PC=000a, R1=00000006, R2=00000005, R3=00000000, R4=00000001, R5=00000002, R9=00000001, R10=00000005, MEM1=00000005, MEM2=fffffffe, MEM3=00000012, MEM4=0000000a, MEM5=00000000, MEM6=fffffff9
#                  585  IR>: 10530000, PC=000a, R1=00000006, R2=00000005, R3=fffffffe, R4=00000001, R5=00000002, R9=00000001, R10=00000005, MEM1=00000005, MEM2=fffffffe, MEM3=00000012, MEM4=0000000a, MEM5=00000000, MEM6=fffffff9
#                  595  IR>: 80494001, PC=000b, R1=00000006, R2=00000005, R3=fffffffe, R4=00000001, R5=00000002, R9=00000001, R10=00000005, MEM1=00000005, MEM2=fffffffe, MEM3=00000012, MEM4=0000000a, MEM5=00000000, MEM6=fffffff9
#                  625  IR>: 80494001, PC=000b, R1=00000006, R2=00000005, R3=fffffffe, R4=00000002, R5=00000002, R9=00000001, R10=00000005, MEM1=00000005, MEM2=fffffffe, MEM3=00000012, MEM4=0000000a, MEM5=00000000, MEM6=fffffff9
#                  645  IR>: 80595001, PC=000c, R1=00000006, R2=00000005, R3=fffffffe, R4=00000002, R5=00000002, R9=00000001, R10=00000005, MEM1=00000005, MEM2=fffffffe, MEM3=00000012, MEM4=0000000a, MEM5=00000000, MEM6=fffffff9
#                  675  IR>: 80595001, PC=000c, R1=00000006, R2=00000005, R3=fffffffe, R4=00000002, R5=00000003, R9=00000001, R10=00000005, MEM1=00000005, MEM2=fffffffe, MEM3=00000012, MEM4=0000000a, MEM5=00000000, MEM6=fffffff9
#                  695  IR>: 80236002, PC=000d, R1=00000006, R2=00000005, R3=fffffffe, R4=00000002, R5=00000003, R9=00000001, R10=00000005, MEM1=00000005, MEM2=fffffffe, MEM3=00000012, MEM4=0000000a, MEM5=00000000, MEM6=fffffff9
#                  745  IR>: 43000008, PC=000e, R1=00000006, R2=00000005, R3=fffffffe, R4=00000002, R5=00000003, R9=00000001, R10=00000005, MEM1=00000005, MEM2=fffffffe, MEM3=00000012, MEM4=0000000a, MEM5=00000000, MEM6=fffffff9
# branching absolute fail
#                  795  IR>: 00000000, PC=000f, R1=00000006, R2=00000005, R3=fffffffe, R4=00000002, R5=00000003, R9=00000001, R10=00000005, MEM1=00000005, MEM2=fffffffe, MEM3=00000012, MEM4=0000000a, MEM5=00000000, MEM6=fffffff9
#                  845  IR>: 30230000, PC=0010, R1=00000006, R2=00000005, R3=fffffffe, R4=00000002, R5=00000003, R9=00000001, R10=00000005, MEM1=00000005, MEM2=fffffffe, MEM3=00000012, MEM4=0000000a, MEM5=00000000, MEM6=fffffff9
#                  865  IR>: 30230000, PC=0010, R1=00000006, R2=00000005, R3=00000005, R4=00000002, R5=00000003, R9=00000001, R10=00000005, MEM1=00000005, MEM2=fffffffe, MEM3=00000012, MEM4=0000000a, MEM5=00000000, MEM6=fffffff9
#                  885  IR>: 30230000, PC=0010, R1=00000006, R2=fffffffe, R3=00000005, R4=00000002, R5=00000003, R9=00000001, R10=00000005, MEM1=00000005, MEM2=fffffffe, MEM3=00000012, MEM4=0000000a, MEM5=00000000, MEM6=fffffff9
#                  895  IR>: 80494002, PC=0011, R1=00000006, R2=fffffffe, R3=00000005, R4=00000002, R5=00000003, R9=00000001, R10=00000005, MEM1=00000005, MEM2=fffffffe, MEM3=00000012, MEM4=0000000a, MEM5=00000000, MEM6=fffffff9
#                  925  IR>: 80494002, PC=0011, R1=00000006, R2=fffffffe, R3=00000005, R4=00000001, R5=00000003, R9=00000001, R10=00000005, MEM1=00000005, MEM2=fffffffe, MEM3=00000012, MEM4=0000000a, MEM5=00000000, MEM6=fffffff9
#                  945  IR>: 80595002, PC=0012, R1=00000006, R2=fffffffe, R3=00000005, R4=00000001, R5=00000003, R9=00000001, R10=00000005, MEM1=00000005, MEM2=fffffffe, MEM3=00000012, MEM4=0000000a, MEM5=00000000, MEM6=fffffff9
#                  975  IR>: 80595002, PC=0012, R1=00000006, R2=fffffffe, R3=00000005, R4=00000001, R5=00000002, R9=00000001, R10=00000005, MEM1=00000005, MEM2=fffffffe, MEM3=00000012, MEM4=0000000a, MEM5=00000000, MEM6=fffffff9
#                  995  IR>: 20420000, PC=0013, R1=00000006, R2=fffffffe, R3=00000005, R4=00000001, R5=00000002, R9=00000001, R10=00000005, MEM1=00000005, MEM2=fffffffe, MEM3=00000012, MEM4=0000000a, MEM5=00000000, MEM6=fffffff9
#                 1025  IR>: 20420000, PC=0013, R1=00000006, R2=fffffffe, R3=00000005, R4=00000001, R5=00000002, R9=00000001, R10=00000005, MEM1=fffffffe, MEM2=fffffffe, MEM3=00000012, MEM4=0000000a, MEM5=00000000, MEM6=fffffff9
#                 1045  IR>: 20530000, PC=0014, R1=00000006, R2=fffffffe, R3=00000005, R4=00000001, R5=00000002, R9=00000001, R10=00000005, MEM1=fffffffe, MEM2=fffffffe, MEM3=00000012, MEM4=0000000a, MEM5=00000000, MEM6=fffffff9
#                 1075  IR>: 20530000, PC=0014, R1=00000006, R2=fffffffe, R3=00000005, R4=00000001, R5=00000002, R9=00000001, R10=00000005, MEM1=fffffffe, MEM2=00000005, MEM3=00000012, MEM4=0000000a, MEM5=00000000, MEM6=fffffff9
#                 1095  IR>: 88440001, PC=0015, R1=00000006, R2=fffffffe, R3=00000005, R4=00000001, R5=00000002, R9=00000001, R10=00000005, MEM1=fffffffe, MEM2=00000005, MEM3=00000012, MEM4=0000000a, MEM5=00000000, MEM6=fffffff9
#                 1125  IR>: 88440001, PC=0015, R1=00000006, R2=fffffffe, R3=00000005, R4=00000002, R5=00000002, R9=00000001, R10=00000005, MEM1=fffffffe, MEM2=00000005, MEM3=00000012, MEM4=0000000a, MEM5=00000000, MEM6=fffffff9
#                 1145  IR>: 88550001, PC=0016, R1=00000006, R2=fffffffe, R3=00000005, R4=00000002, R5=00000002, R9=00000001, R10=00000005, MEM1=fffffffe, MEM2=00000005, MEM3=00000012, MEM4=0000000a, MEM5=00000000, MEM6=fffffff9
#                 1175  IR>: 88550001, PC=0016, R1=00000006, R2=fffffffe, R3=00000005, R4=00000002, R5=00000003, R9=00000001, R10=00000005, MEM1=fffffffe, MEM2=00000005, MEM3=00000012, MEM4=0000000a, MEM5=00000000, MEM6=fffffff9
#                 1195  IR>: 80198002, PC=0017, R1=00000006, R2=fffffffe, R3=00000005, R4=00000002, R5=00000003, R9=00000001, R10=00000005, MEM1=fffffffe, MEM2=00000005, MEM3=00000012, MEM4=0000000a, MEM5=00000000, MEM6=fffffff9
#                 1245  IR>: 41000008, PC=0018, R1=00000006, R2=fffffffe, R3=00000005, R4=00000002, R5=00000003, R9=00000001, R10=00000005, MEM1=fffffffe, MEM2=00000005, MEM3=00000012, MEM4=0000000a, MEM5=00000000, MEM6=fffffff9
# branching absolute fail
#                 1295  IR>: 00000000, PC=0019, R1=00000006, R2=fffffffe, R3=00000005, R4=00000002, R5=00000003, R9=00000001, R10=00000005, MEM1=fffffffe, MEM2=00000005, MEM3=00000012, MEM4=0000000a, MEM5=00000000, MEM6=fffffff9
#                 1345  IR>: 80c94001, PC=001a, R1=00000006, R2=fffffffe, R3=00000005, R4=00000002, R5=00000003, R9=00000001, R10=00000005, MEM1=fffffffe, MEM2=00000005, MEM3=00000012, MEM4=0000000a, MEM5=00000000, MEM6=fffffff9
#                 1375  IR>: 80c94001, PC=001a, R1=00000006, R2=fffffffe, R3=00000005, R4=00000001, R5=00000003, R9=00000001, R10=00000005, MEM1=fffffffe, MEM2=00000005, MEM3=00000012, MEM4=0000000a, MEM5=00000000, MEM6=fffffff9
#                 1395  IR>: 80995001, PC=001b, R1=00000006, R2=fffffffe, R3=00000005, R4=00000001, R5=00000003, R9=00000001, R10=00000005, MEM1=fffffffe, MEM2=00000005, MEM3=00000012, MEM4=0000000a, MEM5=00000000, MEM6=fffffff9
#                 1425  IR>: 80995001, PC=001b, R1=00000006, R2=fffffffe, R3=00000005, R4=00000001, R5=00000002, R9=00000001, R10=00000005, MEM1=fffffffe, MEM2=00000005, MEM3=00000012, MEM4=0000000a, MEM5=00000000, MEM6=fffffff9
#                 1445  IR>: 80a9b002, PC=001c, R1=00000006, R2=fffffffe, R3=00000005, R4=00000001, R5=00000002, R9=00000001, R10=00000005, MEM1=fffffffe, MEM2=00000005, MEM3=00000012, MEM4=0000000a, MEM5=00000000, MEM6=fffffff9
#                 1495  IR>: 61000004, PC=001d, R1=00000006, R2=fffffffe, R3=00000005, R4=00000001, R5=00000002, R9=00000001, R10=00000005, MEM1=fffffffe, MEM2=00000005, MEM3=00000012, MEM4=0000000a, MEM5=00000000, MEM6=fffffff9
# branching negative
#                 1525  IR>: 18010000, PC=0004, R1=00000006, R2=fffffffe, R3=00000005, R4=00000001, R5=00000002, R9=00000001, R10=00000005, MEM1=fffffffe, MEM2=00000005, MEM3=00000012, MEM4=0000000a, MEM5=00000000, MEM6=fffffff9
#                 1575  IR>: 00000000, PC=0005, R1=00000006, R2=fffffffe, R3=00000005, R4=00000001, R5=00000002, R9=00000001, R10=00000005, MEM1=fffffffe, MEM2=00000005, MEM3=00000012, MEM4=0000000a, MEM5=00000000, MEM6=fffffff9
#                 1625  IR>: 80191001, PC=0006, R1=00000006, R2=fffffffe, R3=00000005, R4=00000001, R5=00000002, R9=00000001, R10=00000005, MEM1=fffffffe, MEM2=00000005, MEM3=00000012, MEM4=0000000a, MEM5=00000000, MEM6=fffffff9
#                 1655  IR>: 80191001, PC=0006, R1=00000007, R2=fffffffe, R3=00000005, R4=00000001, R5=00000002, R9=00000001, R10=00000005, MEM1=fffffffe, MEM2=00000005, MEM3=00000012, MEM4=0000000a, MEM5=00000000, MEM6=fffffff9
#                 1675  IR>: 80a9a002, PC=0007, R1=00000007, R2=fffffffe, R3=00000005, R4=00000001, R5=00000002, R9=00000001, R10=00000005, MEM1=fffffffe, MEM2=00000005, MEM3=00000012, MEM4=0000000a, MEM5=00000000, MEM6=fffffff9
#                 1705  IR>: 80a9a002, PC=0007, R1=00000007, R2=fffffffe, R3=00000005, R4=00000001, R5=00000002, R9=00000001, R10=00000004, MEM1=fffffffe, MEM2=00000005, MEM3=00000012, MEM4=0000000a, MEM5=00000000, MEM6=fffffff9
#                 1725  IR>: 80191002, PC=0008, R1=00000007, R2=fffffffe, R3=00000005, R4=00000001, R5=00000002, R9=00000001, R10=00000004, MEM1=fffffffe, MEM2=00000005, MEM3=00000012, MEM4=0000000a, MEM5=00000000, MEM6=fffffff9
#                 1755  IR>: 80191002, PC=0008, R1=00000006, R2=fffffffe, R3=00000005, R4=00000001, R5=00000002, R9=00000001, R10=00000004, MEM1=fffffffe, MEM2=00000005, MEM3=00000012, MEM4=0000000a, MEM5=00000000, MEM6=fffffff9
#                 1775  IR>: 10420000, PC=0009, R1=00000006, R2=fffffffe, R3=00000005, R4=00000001, R5=00000002, R9=00000001, R10=00000004, MEM1=fffffffe, MEM2=00000005, MEM3=00000012, MEM4=0000000a, MEM5=00000000, MEM6=fffffff9
#                 1825  IR>: 10530000, PC=000a, R1=00000006, R2=fffffffe, R3=00000005, R4=00000001, R5=00000002, R9=00000001, R10=00000004, MEM1=fffffffe, MEM2=00000005, MEM3=00000012, MEM4=0000000a, MEM5=00000000, MEM6=fffffff9
#                 1875  IR>: 80494001, PC=000b, R1=00000006, R2=fffffffe, R3=00000005, R4=00000001, R5=00000002, R9=00000001, R10=00000004, MEM1=fffffffe, MEM2=00000005, MEM3=00000012, MEM4=0000000a, MEM5=00000000, MEM6=fffffff9
#                 1905  IR>: 80494001, PC=000b, R1=00000006, R2=fffffffe, R3=00000005, R4=00000002, R5=00000002, R9=00000001, R10=00000004, MEM1=fffffffe, MEM2=00000005, MEM3=00000012, MEM4=0000000a, MEM5=00000000, MEM6=fffffff9
#                 1925  IR>: 80595001, PC=000c, R1=00000006, R2=fffffffe, R3=00000005, R4=00000002, R5=00000002, R9=00000001, R10=00000004, MEM1=fffffffe, MEM2=00000005, MEM3=00000012, MEM4=0000000a, MEM5=00000000, MEM6=fffffff9
#                 1955  IR>: 80595001, PC=000c, R1=00000006, R2=fffffffe, R3=00000005, R4=00000002, R5=00000003, R9=00000001, R10=00000004, MEM1=fffffffe, MEM2=00000005, MEM3=00000012, MEM4=0000000a, MEM5=00000000, MEM6=fffffff9
#                 1975  IR>: 80236002, PC=000d, R1=00000006, R2=fffffffe, R3=00000005, R4=00000002, R5=00000003, R9=00000001, R10=00000004, MEM1=fffffffe, MEM2=00000005, MEM3=00000012, MEM4=0000000a, MEM5=00000000, MEM6=fffffff9
#                 2025  IR>: 43000008, PC=000e, R1=00000006, R2=fffffffe, R3=00000005, R4=00000002, R5=00000003, R9=00000001, R10=00000004, MEM1=fffffffe, MEM2=00000005, MEM3=00000012, MEM4=0000000a, MEM5=00000000, MEM6=fffffff9
# branching absolute
#                 2055  IR>: 80191002, PC=0008, R1=00000006, R2=fffffffe, R3=00000005, R4=00000002, R5=00000003, R9=00000001, R10=00000004, MEM1=fffffffe, MEM2=00000005, MEM3=00000012, MEM4=0000000a, MEM5=00000000, MEM6=fffffff9
#                 2085  IR>: 80191002, PC=0008, R1=00000005, R2=fffffffe, R3=00000005, R4=00000002, R5=00000003, R9=00000001, R10=00000004, MEM1=fffffffe, MEM2=00000005, MEM3=00000012, MEM4=0000000a, MEM5=00000000, MEM6=fffffff9
#                 2105  IR>: 10420000, PC=0009, R1=00000005, R2=fffffffe, R3=00000005, R4=00000002, R5=00000003, R9=00000001, R10=00000004, MEM1=fffffffe, MEM2=00000005, MEM3=00000012, MEM4=0000000a, MEM5=00000000, MEM6=fffffff9
#                 2145  IR>: 10420000, PC=0009, R1=00000005, R2=00000005, R3=00000005, R4=00000002, R5=00000003, R9=00000001, R10=00000004, MEM1=fffffffe, MEM2=00000005, MEM3=00000012, MEM4=0000000a, MEM5=00000000, MEM6=fffffff9
#                 2155  IR>: 10530000, PC=000a, R1=00000005, R2=00000005, R3=00000005, R4=00000002, R5=00000003, R9=00000001, R10=00000004, MEM1=fffffffe, MEM2=00000005, MEM3=00000012, MEM4=0000000a, MEM5=00000000, MEM6=fffffff9
#                 2195  IR>: 10530000, PC=000a, R1=00000005, R2=00000005, R3=00000012, R4=00000002, R5=00000003, R9=00000001, R10=00000004, MEM1=fffffffe, MEM2=00000005, MEM3=00000012, MEM4=0000000a, MEM5=00000000, MEM6=fffffff9
#                 2205  IR>: 80494001, PC=000b, R1=00000005, R2=00000005, R3=00000012, R4=00000002, R5=00000003, R9=00000001, R10=00000004, MEM1=fffffffe, MEM2=00000005, MEM3=00000012, MEM4=0000000a, MEM5=00000000, MEM6=fffffff9
#                 2235  IR>: 80494001, PC=000b, R1=00000005, R2=00000005, R3=00000012, R4=00000003, R5=00000003, R9=00000001, R10=00000004, MEM1=fffffffe, MEM2=00000005, MEM3=00000012, MEM4=0000000a, MEM5=00000000, MEM6=fffffff9
#                 2255  IR>: 80595001, PC=000c, R1=00000005, R2=00000005, R3=00000012, R4=00000003, R5=00000003, R9=00000001, R10=00000004, MEM1=fffffffe, MEM2=00000005, MEM3=00000012, MEM4=0000000a, MEM5=00000000, MEM6=fffffff9
#                 2285  IR>: 80595001, PC=000c, R1=00000005, R2=00000005, R3=00000012, R4=00000003, R5=00000004, R9=00000001, R10=00000004, MEM1=fffffffe, MEM2=00000005, MEM3=00000012, MEM4=0000000a, MEM5=00000000, MEM6=fffffff9
#                 2305  IR>: 80236002, PC=000d, R1=00000005, R2=00000005, R3=00000012, R4=00000003, R5=00000004, R9=00000001, R10=00000004, MEM1=fffffffe, MEM2=00000005, MEM3=00000012, MEM4=0000000a, MEM5=00000000, MEM6=fffffff9
#                 2355  IR>: 43000008, PC=000e, R1=00000005, R2=00000005, R3=00000012, R4=00000003, R5=00000004, R9=00000001, R10=00000004, MEM1=fffffffe, MEM2=00000005, MEM3=00000012, MEM4=0000000a, MEM5=00000000, MEM6=fffffff9
# branching absolute
#                 2385  IR>: 80191002, PC=0008, R1=00000005, R2=00000005, R3=00000012, R4=00000003, R5=00000004, R9=00000001, R10=00000004, MEM1=fffffffe, MEM2=00000005, MEM3=00000012, MEM4=0000000a, MEM5=00000000, MEM6=fffffff9
#                 2415  IR>: 80191002, PC=0008, R1=00000004, R2=00000005, R3=00000012, R4=00000003, R5=00000004, R9=00000001, R10=00000004, MEM1=fffffffe, MEM2=00000005, MEM3=00000012, MEM4=0000000a, MEM5=00000000, MEM6=fffffff9
#                 2435  IR>: 10420000, PC=0009, R1=00000004, R2=00000005, R3=00000012, R4=00000003, R5=00000004, R9=00000001, R10=00000004, MEM1=fffffffe, MEM2=00000005, MEM3=00000012, MEM4=0000000a, MEM5=00000000, MEM6=fffffff9
#                 2475  IR>: 10420000, PC=0009, R1=00000004, R2=00000012, R3=00000012, R4=00000003, R5=00000004, R9=00000001, R10=00000004, MEM1=fffffffe, MEM2=00000005, MEM3=00000012, MEM4=0000000a, MEM5=00000000, MEM6=fffffff9
#                 2485  IR>: 10530000, PC=000a, R1=00000004, R2=00000012, R3=00000012, R4=00000003, R5=00000004, R9=00000001, R10=00000004, MEM1=fffffffe, MEM2=00000005, MEM3=00000012, MEM4=0000000a, MEM5=00000000, MEM6=fffffff9
#                 2525  IR>: 10530000, PC=000a, R1=00000004, R2=00000012, R3=0000000a, R4=00000003, R5=00000004, R9=00000001, R10=00000004, MEM1=fffffffe, MEM2=00000005, MEM3=00000012, MEM4=0000000a, MEM5=00000000, MEM6=fffffff9
#                 2535  IR>: 80494001, PC=000b, R1=00000004, R2=00000012, R3=0000000a, R4=00000003, R5=00000004, R9=00000001, R10=00000004, MEM1=fffffffe, MEM2=00000005, MEM3=00000012, MEM4=0000000a, MEM5=00000000, MEM6=fffffff9
#                 2565  IR>: 80494001, PC=000b, R1=00000004, R2=00000012, R3=0000000a, R4=00000004, R5=00000004, R9=00000001, R10=00000004, MEM1=fffffffe, MEM2=00000005, MEM3=00000012, MEM4=0000000a, MEM5=00000000, MEM6=fffffff9
#                 2585  IR>: 80595001, PC=000c, R1=00000004, R2=00000012, R3=0000000a, R4=00000004, R5=00000004, R9=00000001, R10=00000004, MEM1=fffffffe, MEM2=00000005, MEM3=00000012, MEM4=0000000a, MEM5=00000000, MEM6=fffffff9
#                 2615  IR>: 80595001, PC=000c, R1=00000004, R2=00000012, R3=0000000a, R4=00000004, R5=00000005, R9=00000001, R10=00000004, MEM1=fffffffe, MEM2=00000005, MEM3=00000012, MEM4=0000000a, MEM5=00000000, MEM6=fffffff9
#                 2635  IR>: 80236002, PC=000d, R1=00000004, R2=00000012, R3=0000000a, R4=00000004, R5=00000005, R9=00000001, R10=00000004, MEM1=fffffffe, MEM2=00000005, MEM3=00000012, MEM4=0000000a, MEM5=00000000, MEM6=fffffff9
#                 2685  IR>: 43000008, PC=000e, R1=00000004, R2=00000012, R3=0000000a, R4=00000004, R5=00000005, R9=00000001, R10=00000004, MEM1=fffffffe, MEM2=00000005, MEM3=00000012, MEM4=0000000a, MEM5=00000000, MEM6=fffffff9
# branching absolute fail
#                 2735  IR>: 00000000, PC=000f, R1=00000004, R2=00000012, R3=0000000a, R4=00000004, R5=00000005, R9=00000001, R10=00000004, MEM1=fffffffe, MEM2=00000005, MEM3=00000012, MEM4=0000000a, MEM5=00000000, MEM6=fffffff9
#                 2785  IR>: 30230000, PC=0010, R1=00000004, R2=00000012, R3=0000000a, R4=00000004, R5=00000005, R9=00000001, R10=00000004, MEM1=fffffffe, MEM2=00000005, MEM3=00000012, MEM4=0000000a, MEM5=00000000, MEM6=fffffff9
#                 2805  IR>: 30230000, PC=0010, R1=00000004, R2=00000012, R3=00000012, R4=00000004, R5=00000005, R9=00000001, R10=00000004, MEM1=fffffffe, MEM2=00000005, MEM3=00000012, MEM4=0000000a, MEM5=00000000, MEM6=fffffff9
#                 2825  IR>: 30230000, PC=0010, R1=00000004, R2=0000000a, R3=00000012, R4=00000004, R5=00000005, R9=00000001, R10=00000004, MEM1=fffffffe, MEM2=00000005, MEM3=00000012, MEM4=0000000a, MEM5=00000000, MEM6=fffffff9
#                 2835  IR>: 80494002, PC=0011, R1=00000004, R2=0000000a, R3=00000012, R4=00000004, R5=00000005, R9=00000001, R10=00000004, MEM1=fffffffe, MEM2=00000005, MEM3=00000012, MEM4=0000000a, MEM5=00000000, MEM6=fffffff9
#                 2865  IR>: 80494002, PC=0011, R1=00000004, R2=0000000a, R3=00000012, R4=00000003, R5=00000005, R9=00000001, R10=00000004, MEM1=fffffffe, MEM2=00000005, MEM3=00000012, MEM4=0000000a, MEM5=00000000, MEM6=fffffff9
#                 2885  IR>: 80595002, PC=0012, R1=00000004, R2=0000000a, R3=00000012, R4=00000003, R5=00000005, R9=00000001, R10=00000004, MEM1=fffffffe, MEM2=00000005, MEM3=00000012, MEM4=0000000a, MEM5=00000000, MEM6=fffffff9
#                 2915  IR>: 80595002, PC=0012, R1=00000004, R2=0000000a, R3=00000012, R4=00000003, R5=00000004, R9=00000001, R10=00000004, MEM1=fffffffe, MEM2=00000005, MEM3=00000012, MEM4=0000000a, MEM5=00000000, MEM6=fffffff9
#                 2935  IR>: 20420000, PC=0013, R1=00000004, R2=0000000a, R3=00000012, R4=00000003, R5=00000004, R9=00000001, R10=00000004, MEM1=fffffffe, MEM2=00000005, MEM3=00000012, MEM4=0000000a, MEM5=00000000, MEM6=fffffff9
#                 2965  IR>: 20420000, PC=0013, R1=00000004, R2=0000000a, R3=00000012, R4=00000003, R5=00000004, R9=00000001, R10=00000004, MEM1=fffffffe, MEM2=00000005, MEM3=0000000a, MEM4=0000000a, MEM5=00000000, MEM6=fffffff9
#                 2985  IR>: 20530000, PC=0014, R1=00000004, R2=0000000a, R3=00000012, R4=00000003, R5=00000004, R9=00000001, R10=00000004, MEM1=fffffffe, MEM2=00000005, MEM3=0000000a, MEM4=0000000a, MEM5=00000000, MEM6=fffffff9
#                 3015  IR>: 20530000, PC=0014, R1=00000004, R2=0000000a, R3=00000012, R4=00000003, R5=00000004, R9=00000001, R10=00000004, MEM1=fffffffe, MEM2=00000005, MEM3=0000000a, MEM4=00000012, MEM5=00000000, MEM6=fffffff9
#                 3035  IR>: 88440001, PC=0015, R1=00000004, R2=0000000a, R3=00000012, R4=00000003, R5=00000004, R9=00000001, R10=00000004, MEM1=fffffffe, MEM2=00000005, MEM3=0000000a, MEM4=00000012, MEM5=00000000, MEM6=fffffff9
#                 3065  IR>: 88440001, PC=0015, R1=00000004, R2=0000000a, R3=00000012, R4=00000004, R5=00000004, R9=00000001, R10=00000004, MEM1=fffffffe, MEM2=00000005, MEM3=0000000a, MEM4=00000012, MEM5=00000000, MEM6=fffffff9
