transcript
# vsim -c -novopt sisc_tb 
# //  ModelSim SE-64 6.5b_1 Jul 14 2009 Linux 3.11.10-11-desktop
# //
# //  Copyright 1991-2009 Mentor Graphics Corporation
# //              All Rights Reserved.
# //
# //  THIS WORK CONTAINS TRADE SECRET AND 
# //  PROPRIETARY INFORMATION WHICH IS THE PROPERTY
# //  OF MENTOR GRAPHICS CORPORATION OR ITS LICENSORS
# //  AND IS SUBJECT TO LICENSE TERMS.
# //
# Refreshing /nfs/s-l011/local/vol02/m/mfina/carch/VerilogProject/work.sisc_tb
# Loading work.sisc_tb
# Refreshing /nfs/s-l011/local/vol02/m/mfina/carch/VerilogProject/work.sisc
# Loading work.sisc
# Refreshing /nfs/s-l011/local/vol02/m/mfina/carch/VerilogProject/work.mux32
# Loading work.mux32
# Refreshing /nfs/s-l011/local/vol02/m/mfina/carch/VerilogProject/work.swap_data
# Loading work.swap_data
# Refreshing /nfs/s-l011/local/vol02/m/mfina/carch/VerilogProject/work.swap_reg
# Loading work.swap_reg
# Refreshing /nfs/s-l011/local/vol02/m/mfina/carch/VerilogProject/work.mux16
# Loading work.mux16
# Refreshing /nfs/s-l011/local/vol02/m/mfina/carch/VerilogProject/work.dm
# Loading work.dm
# Refreshing /nfs/s-l011/local/vol02/m/mfina/carch/VerilogProject/work.mux4
# Loading work.mux4
# Refreshing /nfs/s-l011/local/vol02/m/mfina/carch/VerilogProject/work.rf
# Loading work.rf
# Refreshing /nfs/s-l011/local/vol02/m/mfina/carch/VerilogProject/work.alu
# Loading work.alu
# Refreshing /nfs/s-l011/local/vol02/m/mfina/carch/VerilogProject/work.statreg
# Loading work.statreg
# Refreshing /nfs/s-l011/local/vol02/m/mfina/carch/VerilogProject/work.ctrl
# Loading work.ctrl
# Refreshing /nfs/s-l011/local/vol02/m/mfina/carch/VerilogProject/work.pc
# Loading work.pc
# Refreshing /nfs/s-l011/local/vol02/m/mfina/carch/VerilogProject/work.im
# Loading work.im
# Refreshing /nfs/s-l011/local/vol02/m/mfina/carch/VerilogProject/work.br
# Loading work.br
# Refreshing /nfs/s-l011/local/vol02/m/mfina/carch/VerilogProject/work.sisc_test
# Loading work.sisc_test
#                    0   IR>: 18010000, PC=0000, R1=00000000, R2=00000000, R3=00000000, R4=00000000, RD_SEL=xx, RF_WE=x, BR_SEL=x, PC_SEL=x, DM_WE = x, MM_SEL = x
#                   45   IR>: 18010000, PC=0000, R1=00000000, R2=00000000, R3=00000000, R4=00000000, RD_SEL=00, RF_WE=0, BR_SEL=0, PC_SEL=0, DM_WE = 0, MM_SEL = x
#                   55   IR>: 18010000, PC=0000, R1=00000000, R2=00000000, R3=00000000, R4=00000000, RD_SEL=01, RF_WE=0, BR_SEL=0, PC_SEL=0, DM_WE = 0, MM_SEL = x
#                   65   IR>: 18010000, PC=0000, R1=00000000, R2=00000000, R3=00000000, R4=00000000, RD_SEL=01, RF_WE=0, BR_SEL=0, PC_SEL=0, DM_WE = 0, MM_SEL = 1
#                   85   IR>: 18010000, PC=0000, R1=00000014, R2=00000000, R3=00000000, R4=00000000, RD_SEL=01, RF_WE=1, BR_SEL=0, PC_SEL=0, DM_WE = 0, MM_SEL = 1
#                   95   IR>: 18020001, PC=0001, R1=00000014, R2=00000000, R3=00000000, R4=00000000, RD_SEL=00, RF_WE=0, BR_SEL=0, PC_SEL=0, DM_WE = 0, MM_SEL = 1
#                  105   IR>: 18020001, PC=0001, R1=00000014, R2=00000000, R3=00000000, R4=00000000, RD_SEL=01, RF_WE=0, BR_SEL=0, PC_SEL=0, DM_WE = 0, MM_SEL = 1
#                  135   IR>: 18020001, PC=0001, R1=00000014, R2=00000005, R3=00000000, R4=00000000, RD_SEL=01, RF_WE=1, BR_SEL=0, PC_SEL=0, DM_WE = 0, MM_SEL = 1
#                  145   IR>: 88050001, PC=0002, R1=00000014, R2=00000005, R3=00000000, R4=00000000, RD_SEL=00, RF_WE=0, BR_SEL=0, PC_SEL=0, DM_WE = 0, MM_SEL = 1
#                  155   IR>: 88050001, PC=0002, R1=00000014, R2=00000005, R3=00000000, R4=00000000, RD_SEL=01, RF_WE=0, BR_SEL=0, PC_SEL=0, DM_WE = 0, MM_SEL = 1
#                  175   IR>: 88050001, PC=0002, R1=00000014, R2=00000005, R3=00000000, R4=00000000, RD_SEL=01, RF_WE=1, BR_SEL=0, PC_SEL=0, DM_WE = 0, MM_SEL = 1
#                  195   IR>: 88240000, PC=0003, R1=00000014, R2=00000005, R3=00000000, R4=00000000, RD_SEL=00, RF_WE=0, BR_SEL=0, PC_SEL=0, DM_WE = 0, MM_SEL = 1
#                  205   IR>: 88240000, PC=0003, R1=00000014, R2=00000005, R3=00000000, R4=00000000, RD_SEL=01, RF_WE=0, BR_SEL=0, PC_SEL=0, DM_WE = 0, MM_SEL = 1
#                  225   IR>: 88240000, PC=0003, R1=00000014, R2=00000005, R3=00000000, R4=00000005, RD_SEL=01, RF_WE=1, BR_SEL=0, PC_SEL=0, DM_WE = 0, MM_SEL = 1
#                  245   IR>: 80151002, PC=0004, R1=00000014, R2=00000005, R3=00000000, R4=00000005, RD_SEL=00, RF_WE=0, BR_SEL=0, PC_SEL=0, DM_WE = 0, MM_SEL = 1
#                  275   IR>: 80151002, PC=0004, R1=00000013, R2=00000005, R3=00000000, R4=00000005, RD_SEL=00, RF_WE=1, BR_SEL=0, PC_SEL=0, DM_WE = 0, MM_SEL = 1
#                  295   IR>: 4100000b, PC=0005, R1=00000013, R2=00000005, R3=00000000, R4=00000005, RD_SEL=00, RF_WE=0, BR_SEL=0, PC_SEL=0, DM_WE = 0, MM_SEL = 1
# branching absolute fail
#                  345   IR>: 80244001, PC=0006, R1=00000013, R2=00000005, R3=00000000, R4=00000005, RD_SEL=00, RF_WE=0, BR_SEL=0, PC_SEL=0, DM_WE = 0, MM_SEL = 1
#                  375   IR>: 80244001, PC=0006, R1=00000013, R2=00000005, R3=00000000, R4=0000000a, RD_SEL=00, RF_WE=1, BR_SEL=0, PC_SEL=0, DM_WE = 0, MM_SEL = 1
#                  395   IR>: 44000009, PC=0007, R1=00000013, R2=00000005, R3=00000000, R4=0000000a, RD_SEL=00, RF_WE=0, BR_SEL=0, PC_SEL=0, DM_WE = 0, MM_SEL = 1
# branching absolute fail
#                  445   IR>: 60000004, PC=0008, R1=00000013, R2=00000005, R3=00000000, R4=0000000a, RD_SEL=00, RF_WE=0, BR_SEL=0, PC_SEL=0, DM_WE = 0, MM_SEL = 1
# branching negative
#                  465   IR>: 60000004, PC=0008, R1=00000013, R2=00000005, R3=00000000, R4=0000000a, RD_SEL=00, RF_WE=0, BR_SEL=1, PC_SEL=1, DM_WE = 0, MM_SEL = 1
#                  475   IR>: 80151002, PC=0004, R1=00000013, R2=00000005, R3=00000000, R4=0000000a, RD_SEL=00, RF_WE=0, BR_SEL=1, PC_SEL=0, DM_WE = 0, MM_SEL = 1
#                  505   IR>: 80151002, PC=0004, R1=00000012, R2=00000005, R3=00000000, R4=0000000a, RD_SEL=00, RF_WE=1, BR_SEL=1, PC_SEL=0, DM_WE = 0, MM_SEL = 1
#                  525   IR>: 4100000b, PC=0005, R1=00000012, R2=00000005, R3=00000000, R4=0000000a, RD_SEL=00, RF_WE=0, BR_SEL=0, PC_SEL=0, DM_WE = 0, MM_SEL = 1
# branching absolute fail
#                  575   IR>: 80244001, PC=0006, R1=00000012, R2=00000005, R3=00000000, R4=0000000a, RD_SEL=00, RF_WE=0, BR_SEL=0, PC_SEL=0, DM_WE = 0, MM_SEL = 1
#                  605   IR>: 80244001, PC=0006, R1=00000012, R2=00000005, R3=00000000, R4=0000000f, RD_SEL=00, RF_WE=1, BR_SEL=0, PC_SEL=0, DM_WE = 0, MM_SEL = 1
#                  625   IR>: 44000009, PC=0007, R1=00000012, R2=00000005, R3=00000000, R4=0000000f, RD_SEL=00, RF_WE=0, BR_SEL=0, PC_SEL=0, DM_WE = 0, MM_SEL = 1
# branching absolute fail
#                  675   IR>: 60000004, PC=0008, R1=00000012, R2=00000005, R3=00000000, R4=0000000f, RD_SEL=00, RF_WE=0, BR_SEL=0, PC_SEL=0, DM_WE = 0, MM_SEL = 1
# branching negative
#                  695   IR>: 60000004, PC=0008, R1=00000012, R2=00000005, R3=00000000, R4=0000000f, RD_SEL=00, RF_WE=0, BR_SEL=1, PC_SEL=1, DM_WE = 0, MM_SEL = 1
#                  705   IR>: 80151002, PC=0004, R1=00000012, R2=00000005, R3=00000000, R4=0000000f, RD_SEL=00, RF_WE=0, BR_SEL=1, PC_SEL=0, DM_WE = 0, MM_SEL = 1
#                  735   IR>: 80151002, PC=0004, R1=00000011, R2=00000005, R3=00000000, R4=0000000f, RD_SEL=00, RF_WE=1, BR_SEL=1, PC_SEL=0, DM_WE = 0, MM_SEL = 1
#                  755   IR>: 4100000b, PC=0005, R1=00000011, R2=00000005, R3=00000000, R4=0000000f, RD_SEL=00, RF_WE=0, BR_SEL=0, PC_SEL=0, DM_WE = 0, MM_SEL = 1
# branching absolute fail
#                  805   IR>: 80244001, PC=0006, R1=00000011, R2=00000005, R3=00000000, R4=0000000f, RD_SEL=00, RF_WE=0, BR_SEL=0, PC_SEL=0, DM_WE = 0, MM_SEL = 1
#                  835   IR>: 80244001, PC=0006, R1=00000011, R2=00000005, R3=00000000, R4=00000014, RD_SEL=00, RF_WE=1, BR_SEL=0, PC_SEL=0, DM_WE = 0, MM_SEL = 1
#                  855   IR>: 44000009, PC=0007, R1=00000011, R2=00000005, R3=00000000, R4=00000014, RD_SEL=00, RF_WE=0, BR_SEL=0, PC_SEL=0, DM_WE = 0, MM_SEL = 1
# branching absolute fail
#                  905   IR>: 60000004, PC=0008, R1=00000011, R2=00000005, R3=00000000, R4=00000014, RD_SEL=00, RF_WE=0, BR_SEL=0, PC_SEL=0, DM_WE = 0, MM_SEL = 1
# branching negative
#                  925   IR>: 60000004, PC=0008, R1=00000011, R2=00000005, R3=00000000, R4=00000014, RD_SEL=00, RF_WE=0, BR_SEL=1, PC_SEL=1, DM_WE = 0, MM_SEL = 1
#                  935   IR>: 80151002, PC=0004, R1=00000011, R2=00000005, R3=00000000, R4=00000014, RD_SEL=00, RF_WE=0, BR_SEL=1, PC_SEL=0, DM_WE = 0, MM_SEL = 1
#                  965   IR>: 80151002, PC=0004, R1=00000010, R2=00000005, R3=00000000, R4=00000014, RD_SEL=00, RF_WE=1, BR_SEL=1, PC_SEL=0, DM_WE = 0, MM_SEL = 1
#                  985   IR>: 4100000b, PC=0005, R1=00000010, R2=00000005, R3=00000000, R4=00000014, RD_SEL=00, RF_WE=0, BR_SEL=0, PC_SEL=0, DM_WE = 0, MM_SEL = 1
# branching absolute fail
#                 1035   IR>: 80244001, PC=0006, R1=00000010, R2=00000005, R3=00000000, R4=00000014, RD_SEL=00, RF_WE=0, BR_SEL=0, PC_SEL=0, DM_WE = 0, MM_SEL = 1
#                 1065   IR>: 80244001, PC=0006, R1=00000010, R2=00000005, R3=00000000, R4=00000019, RD_SEL=00, RF_WE=1, BR_SEL=0, PC_SEL=0, DM_WE = 0, MM_SEL = 1
#                 1085   IR>: 44000009, PC=0007, R1=00000010, R2=00000005, R3=00000000, R4=00000019, RD_SEL=00, RF_WE=0, BR_SEL=0, PC_SEL=0, DM_WE = 0, MM_SEL = 1
# branching absolute fail
#                 1135   IR>: 60000004, PC=0008, R1=00000010, R2=00000005, R3=00000000, R4=00000019, RD_SEL=00, RF_WE=0, BR_SEL=0, PC_SEL=0, DM_WE = 0, MM_SEL = 1
# branching negative
#                 1155   IR>: 60000004, PC=0008, R1=00000010, R2=00000005, R3=00000000, R4=00000019, RD_SEL=00, RF_WE=0, BR_SEL=1, PC_SEL=1, DM_WE = 0, MM_SEL = 1
#                 1165   IR>: 80151002, PC=0004, R1=00000010, R2=00000005, R3=00000000, R4=00000019, RD_SEL=00, RF_WE=0, BR_SEL=1, PC_SEL=0, DM_WE = 0, MM_SEL = 1
#                 1195   IR>: 80151002, PC=0004, R1=0000000f, R2=00000005, R3=00000000, R4=00000019, RD_SEL=00, RF_WE=1, BR_SEL=1, PC_SEL=0, DM_WE = 0, MM_SEL = 1
#                 1215   IR>: 4100000b, PC=0005, R1=0000000f, R2=00000005, R3=00000000, R4=00000019, RD_SEL=00, RF_WE=0, BR_SEL=0, PC_SEL=0, DM_WE = 0, MM_SEL = 1
# branching absolute fail
#                 1265   IR>: 80244001, PC=0006, R1=0000000f, R2=00000005, R3=00000000, R4=00000019, RD_SEL=00, RF_WE=0, BR_SEL=0, PC_SEL=0, DM_WE = 0, MM_SEL = 1
#                 1295   IR>: 80244001, PC=0006, R1=0000000f, R2=00000005, R3=00000000, R4=0000001e, RD_SEL=00, RF_WE=1, BR_SEL=0, PC_SEL=0, DM_WE = 0, MM_SEL = 1
#                 1315   IR>: 44000009, PC=0007, R1=0000000f, R2=00000005, R3=00000000, R4=0000001e, RD_SEL=00, RF_WE=0, BR_SEL=0, PC_SEL=0, DM_WE = 0, MM_SEL = 1
# branching absolute fail
#                 1365   IR>: 60000004, PC=0008, R1=0000000f, R2=00000005, R3=00000000, R4=0000001e, RD_SEL=00, RF_WE=0, BR_SEL=0, PC_SEL=0, DM_WE = 0, MM_SEL = 1
# branching negative
#                 1385   IR>: 60000004, PC=0008, R1=0000000f, R2=00000005, R3=00000000, R4=0000001e, RD_SEL=00, RF_WE=0, BR_SEL=1, PC_SEL=1, DM_WE = 0, MM_SEL = 1
#                 1395   IR>: 80151002, PC=0004, R1=0000000f, R2=00000005, R3=00000000, R4=0000001e, RD_SEL=00, RF_WE=0, BR_SEL=1, PC_SEL=0, DM_WE = 0, MM_SEL = 1
#                 1425   IR>: 80151002, PC=0004, R1=0000000e, R2=00000005, R3=00000000, R4=0000001e, RD_SEL=00, RF_WE=1, BR_SEL=1, PC_SEL=0, DM_WE = 0, MM_SEL = 1
#                 1445   IR>: 4100000b, PC=0005, R1=0000000e, R2=00000005, R3=00000000, R4=0000001e, RD_SEL=00, RF_WE=0, BR_SEL=0, PC_SEL=0, DM_WE = 0, MM_SEL = 1
# branching absolute fail
#                 1495   IR>: 80244001, PC=0006, R1=0000000e, R2=00000005, R3=00000000, R4=0000001e, RD_SEL=00, RF_WE=0, BR_SEL=0, PC_SEL=0, DM_WE = 0, MM_SEL = 1
#                 1525   IR>: 80244001, PC=0006, R1=0000000e, R2=00000005, R3=00000000, R4=00000023, RD_SEL=00, RF_WE=1, BR_SEL=0, PC_SEL=0, DM_WE = 0, MM_SEL = 1
#                 1545   IR>: 44000009, PC=0007, R1=0000000e, R2=00000005, R3=00000000, R4=00000023, RD_SEL=00, RF_WE=0, BR_SEL=0, PC_SEL=0, DM_WE = 0, MM_SEL = 1
# branching absolute fail
#                 1595   IR>: 60000004, PC=0008, R1=0000000e, R2=00000005, R3=00000000, R4=00000023, RD_SEL=00, RF_WE=0, BR_SEL=0, PC_SEL=0, DM_WE = 0, MM_SEL = 1
# branching negative
#                 1615   IR>: 60000004, PC=0008, R1=0000000e, R2=00000005, R3=00000000, R4=00000023, RD_SEL=00, RF_WE=0, BR_SEL=1, PC_SEL=1, DM_WE = 0, MM_SEL = 1
#                 1625   IR>: 80151002, PC=0004, R1=0000000e, R2=00000005, R3=00000000, R4=00000023, RD_SEL=00, RF_WE=0, BR_SEL=1, PC_SEL=0, DM_WE = 0, MM_SEL = 1
#                 1655   IR>: 80151002, PC=0004, R1=0000000d, R2=00000005, R3=00000000, R4=00000023, RD_SEL=00, RF_WE=1, BR_SEL=1, PC_SEL=0, DM_WE = 0, MM_SEL = 1
#                 1675   IR>: 4100000b, PC=0005, R1=0000000d, R2=00000005, R3=00000000, R4=00000023, RD_SEL=00, RF_WE=0, BR_SEL=0, PC_SEL=0, DM_WE = 0, MM_SEL = 1
# branching absolute fail
#                 1725   IR>: 80244001, PC=0006, R1=0000000d, R2=00000005, R3=00000000, R4=00000023, RD_SEL=00, RF_WE=0, BR_SEL=0, PC_SEL=0, DM_WE = 0, MM_SEL = 1
#                 1755   IR>: 80244001, PC=0006, R1=0000000d, R2=00000005, R3=00000000, R4=00000028, RD_SEL=00, RF_WE=1, BR_SEL=0, PC_SEL=0, DM_WE = 0, MM_SEL = 1
#                 1775   IR>: 44000009, PC=0007, R1=0000000d, R2=00000005, R3=00000000, R4=00000028, RD_SEL=00, RF_WE=0, BR_SEL=0, PC_SEL=0, DM_WE = 0, MM_SEL = 1
# branching absolute fail
#                 1825   IR>: 60000004, PC=0008, R1=0000000d, R2=00000005, R3=00000000, R4=00000028, RD_SEL=00, RF_WE=0, BR_SEL=0, PC_SEL=0, DM_WE = 0, MM_SEL = 1
# branching negative
#                 1845   IR>: 60000004, PC=0008, R1=0000000d, R2=00000005, R3=00000000, R4=00000028, RD_SEL=00, RF_WE=0, BR_SEL=1, PC_SEL=1, DM_WE = 0, MM_SEL = 1
#                 1855   IR>: 80151002, PC=0004, R1=0000000d, R2=00000005, R3=00000000, R4=00000028, RD_SEL=00, RF_WE=0, BR_SEL=1, PC_SEL=0, DM_WE = 0, MM_SEL = 1
#                 1885   IR>: 80151002, PC=0004, R1=0000000c, R2=00000005, R3=00000000, R4=00000028, RD_SEL=00, RF_WE=1, BR_SEL=1, PC_SEL=0, DM_WE = 0, MM_SEL = 1
#                 1905   IR>: 4100000b, PC=0005, R1=0000000c, R2=00000005, R3=00000000, R4=00000028, RD_SEL=00, RF_WE=0, BR_SEL=0, PC_SEL=0, DM_WE = 0, MM_SEL = 1
# branching absolute fail
#                 1955   IR>: 80244001, PC=0006, R1=0000000c, R2=00000005, R3=00000000, R4=00000028, RD_SEL=00, RF_WE=0, BR_SEL=0, PC_SEL=0, DM_WE = 0, MM_SEL = 1
#                 1985   IR>: 80244001, PC=0006, R1=0000000c, R2=00000005, R3=00000000, R4=0000002d, RD_SEL=00, RF_WE=1, BR_SEL=0, PC_SEL=0, DM_WE = 0, MM_SEL = 1
#                 2005   IR>: 44000009, PC=0007, R1=0000000c, R2=00000005, R3=00000000, R4=0000002d, RD_SEL=00, RF_WE=0, BR_SEL=0, PC_SEL=0, DM_WE = 0, MM_SEL = 1
# branching absolute fail
#                 2055   IR>: 60000004, PC=0008, R1=0000000c, R2=00000005, R3=00000000, R4=0000002d, RD_SEL=00, RF_WE=0, BR_SEL=0, PC_SEL=0, DM_WE = 0, MM_SEL = 1
# branching negative
#                 2075   IR>: 60000004, PC=0008, R1=0000000c, R2=00000005, R3=00000000, R4=0000002d, RD_SEL=00, RF_WE=0, BR_SEL=1, PC_SEL=1, DM_WE = 0, MM_SEL = 1
#                 2085   IR>: 80151002, PC=0004, R1=0000000c, R2=00000005, R3=00000000, R4=0000002d, RD_SEL=00, RF_WE=0, BR_SEL=1, PC_SEL=0, DM_WE = 0, MM_SEL = 1
#                 2115   IR>: 80151002, PC=0004, R1=0000000b, R2=00000005, R3=00000000, R4=0000002d, RD_SEL=00, RF_WE=1, BR_SEL=1, PC_SEL=0, DM_WE = 0, MM_SEL = 1
#                 2135   IR>: 4100000b, PC=0005, R1=0000000b, R2=00000005, R3=00000000, R4=0000002d, RD_SEL=00, RF_WE=0, BR_SEL=0, PC_SEL=0, DM_WE = 0, MM_SEL = 1
# branching absolute fail
#                 2185   IR>: 80244001, PC=0006, R1=0000000b, R2=00000005, R3=00000000, R4=0000002d, RD_SEL=00, RF_WE=0, BR_SEL=0, PC_SEL=0, DM_WE = 0, MM_SEL = 1
#                 2215   IR>: 80244001, PC=0006, R1=0000000b, R2=00000005, R3=00000000, R4=00000032, RD_SEL=00, RF_WE=1, BR_SEL=0, PC_SEL=0, DM_WE = 0, MM_SEL = 1
#                 2235   IR>: 44000009, PC=0007, R1=0000000b, R2=00000005, R3=00000000, R4=00000032, RD_SEL=00, RF_WE=0, BR_SEL=0, PC_SEL=0, DM_WE = 0, MM_SEL = 1
# branching absolute fail
#                 2285   IR>: 60000004, PC=0008, R1=0000000b, R2=00000005, R3=00000000, R4=00000032, RD_SEL=00, RF_WE=0, BR_SEL=0, PC_SEL=0, DM_WE = 0, MM_SEL = 1
# branching negative
#                 2305   IR>: 60000004, PC=0008, R1=0000000b, R2=00000005, R3=00000000, R4=00000032, RD_SEL=00, RF_WE=0, BR_SEL=1, PC_SEL=1, DM_WE = 0, MM_SEL = 1
#                 2315   IR>: 80151002, PC=0004, R1=0000000b, R2=00000005, R3=00000000, R4=00000032, RD_SEL=00, RF_WE=0, BR_SEL=1, PC_SEL=0, DM_WE = 0, MM_SEL = 1
#                 2345   IR>: 80151002, PC=0004, R1=0000000a, R2=00000005, R3=00000000, R4=00000032, RD_SEL=00, RF_WE=1, BR_SEL=1, PC_SEL=0, DM_WE = 0, MM_SEL = 1
#                 2365   IR>: 4100000b, PC=0005, R1=0000000a, R2=00000005, R3=00000000, R4=00000032, RD_SEL=00, RF_WE=0, BR_SEL=0, PC_SEL=0, DM_WE = 0, MM_SEL = 1
# branching absolute fail
#                 2415   IR>: 80244001, PC=0006, R1=0000000a, R2=00000005, R3=00000000, R4=00000032, RD_SEL=00, RF_WE=0, BR_SEL=0, PC_SEL=0, DM_WE = 0, MM_SEL = 1
#                 2445   IR>: 80244001, PC=0006, R1=0000000a, R2=00000005, R3=00000000, R4=00000037, RD_SEL=00, RF_WE=1, BR_SEL=0, PC_SEL=0, DM_WE = 0, MM_SEL = 1
#                 2465   IR>: 44000009, PC=0007, R1=0000000a, R2=00000005, R3=00000000, R4=00000037, RD_SEL=00, RF_WE=0, BR_SEL=0, PC_SEL=0, DM_WE = 0, MM_SEL = 1
# branching absolute fail
#                 2515   IR>: 60000004, PC=0008, R1=0000000a, R2=00000005, R3=00000000, R4=00000037, RD_SEL=00, RF_WE=0, BR_SEL=0, PC_SEL=0, DM_WE = 0, MM_SEL = 1
# branching negative
#                 2535   IR>: 60000004, PC=0008, R1=0000000a, R2=00000005, R3=00000000, R4=00000037, RD_SEL=00, RF_WE=0, BR_SEL=1, PC_SEL=1, DM_WE = 0, MM_SEL = 1
#                 2545   IR>: 80151002, PC=0004, R1=0000000a, R2=00000005, R3=00000000, R4=00000037, RD_SEL=00, RF_WE=0, BR_SEL=1, PC_SEL=0, DM_WE = 0, MM_SEL = 1
#                 2575   IR>: 80151002, PC=0004, R1=00000009, R2=00000005, R3=00000000, R4=00000037, RD_SEL=00, RF_WE=1, BR_SEL=1, PC_SEL=0, DM_WE = 0, MM_SEL = 1
#                 2595   IR>: 4100000b, PC=0005, R1=00000009, R2=00000005, R3=00000000, R4=00000037, RD_SEL=00, RF_WE=0, BR_SEL=0, PC_SEL=0, DM_WE = 0, MM_SEL = 1
# branching absolute fail
#                 2645   IR>: 80244001, PC=0006, R1=00000009, R2=00000005, R3=00000000, R4=00000037, RD_SEL=00, RF_WE=0, BR_SEL=0, PC_SEL=0, DM_WE = 0, MM_SEL = 1
#                 2675   IR>: 80244001, PC=0006, R1=00000009, R2=00000005, R3=00000000, R4=0000003c, RD_SEL=00, RF_WE=1, BR_SEL=0, PC_SEL=0, DM_WE = 0, MM_SEL = 1
#                 2695   IR>: 44000009, PC=0007, R1=00000009, R2=00000005, R3=00000000, R4=0000003c, RD_SEL=00, RF_WE=0, BR_SEL=0, PC_SEL=0, DM_WE = 0, MM_SEL = 1
# branching absolute fail
#                 2745   IR>: 60000004, PC=0008, R1=00000009, R2=00000005, R3=00000000, R4=0000003c, RD_SEL=00, RF_WE=0, BR_SEL=0, PC_SEL=0, DM_WE = 0, MM_SEL = 1
# branching negative
#                 2765   IR>: 60000004, PC=0008, R1=00000009, R2=00000005, R3=00000000, R4=0000003c, RD_SEL=00, RF_WE=0, BR_SEL=1, PC_SEL=1, DM_WE = 0, MM_SEL = 1
#                 2775   IR>: 80151002, PC=0004, R1=00000009, R2=00000005, R3=00000000, R4=0000003c, RD_SEL=00, RF_WE=0, BR_SEL=1, PC_SEL=0, DM_WE = 0, MM_SEL = 1
#                 2805   IR>: 80151002, PC=0004, R1=00000008, R2=00000005, R3=00000000, R4=0000003c, RD_SEL=00, RF_WE=1, BR_SEL=1, PC_SEL=0, DM_WE = 0, MM_SEL = 1
#                 2825   IR>: 4100000b, PC=0005, R1=00000008, R2=00000005, R3=00000000, R4=0000003c, RD_SEL=00, RF_WE=0, BR_SEL=0, PC_SEL=0, DM_WE = 0, MM_SEL = 1
# branching absolute fail
#                 2875   IR>: 80244001, PC=0006, R1=00000008, R2=00000005, R3=00000000, R4=0000003c, RD_SEL=00, RF_WE=0, BR_SEL=0, PC_SEL=0, DM_WE = 0, MM_SEL = 1
#                 2905   IR>: 80244001, PC=0006, R1=00000008, R2=00000005, R3=00000000, R4=00000041, RD_SEL=00, RF_WE=1, BR_SEL=0, PC_SEL=0, DM_WE = 0, MM_SEL = 1
#                 2925   IR>: 44000009, PC=0007, R1=00000008, R2=00000005, R3=00000000, R4=00000041, RD_SEL=00, RF_WE=0, BR_SEL=0, PC_SEL=0, DM_WE = 0, MM_SEL = 1
# branching absolute fail
#                 2975   IR>: 60000004, PC=0008, R1=00000008, R2=00000005, R3=00000000, R4=00000041, RD_SEL=00, RF_WE=0, BR_SEL=0, PC_SEL=0, DM_WE = 0, MM_SEL = 1
# branching negative
#                 2995   IR>: 60000004, PC=0008, R1=00000008, R2=00000005, R3=00000000, R4=00000041, RD_SEL=00, RF_WE=0, BR_SEL=1, PC_SEL=1, DM_WE = 0, MM_SEL = 1
#                 3005   IR>: 80151002, PC=0004, R1=00000008, R2=00000005, R3=00000000, R4=00000041, RD_SEL=00, RF_WE=0, BR_SEL=1, PC_SEL=0, DM_WE = 0, MM_SEL = 1
#                 3035   IR>: 80151002, PC=0004, R1=00000007, R2=00000005, R3=00000000, R4=00000041, RD_SEL=00, RF_WE=1, BR_SEL=1, PC_SEL=0, DM_WE = 0, MM_SEL = 1
#                 3055   IR>: 4100000b, PC=0005, R1=00000007, R2=00000005, R3=00000000, R4=00000041, RD_SEL=00, RF_WE=0, BR_SEL=0, PC_SEL=0, DM_WE = 0, MM_SEL = 1
# branching absolute fail
#                 3105   IR>: 80244001, PC=0006, R1=00000007, R2=00000005, R3=00000000, R4=00000041, RD_SEL=00, RF_WE=0, BR_SEL=0, PC_SEL=0, DM_WE = 0, MM_SEL = 1
#                 3135   IR>: 80244001, PC=0006, R1=00000007, R2=00000005, R3=00000000, R4=00000046, RD_SEL=00, RF_WE=1, BR_SEL=0, PC_SEL=0, DM_WE = 0, MM_SEL = 1
#                 3155   IR>: 44000009, PC=0007, R1=00000007, R2=00000005, R3=00000000, R4=00000046, RD_SEL=00, RF_WE=0, BR_SEL=0, PC_SEL=0, DM_WE = 0, MM_SEL = 1
# branching absolute fail
#                 3205   IR>: 60000004, PC=0008, R1=00000007, R2=00000005, R3=00000000, R4=00000046, RD_SEL=00, RF_WE=0, BR_SEL=0, PC_SEL=0, DM_WE = 0, MM_SEL = 1
# branching negative
#                 3225   IR>: 60000004, PC=0008, R1=00000007, R2=00000005, R3=00000000, R4=00000046, RD_SEL=00, RF_WE=0, BR_SEL=1, PC_SEL=1, DM_WE = 0, MM_SEL = 1
#                 3235   IR>: 80151002, PC=0004, R1=00000007, R2=00000005, R3=00000000, R4=00000046, RD_SEL=00, RF_WE=0, BR_SEL=1, PC_SEL=0, DM_WE = 0, MM_SEL = 1
#                 3265   IR>: 80151002, PC=0004, R1=00000006, R2=00000005, R3=00000000, R4=00000046, RD_SEL=00, RF_WE=1, BR_SEL=1, PC_SEL=0, DM_WE = 0, MM_SEL = 1
#                 3285   IR>: 4100000b, PC=0005, R1=00000006, R2=00000005, R3=00000000, R4=00000046, RD_SEL=00, RF_WE=0, BR_SEL=0, PC_SEL=0, DM_WE = 0, MM_SEL = 1
# branching absolute fail
#                 3335   IR>: 80244001, PC=0006, R1=00000006, R2=00000005, R3=00000000, R4=00000046, RD_SEL=00, RF_WE=0, BR_SEL=0, PC_SEL=0, DM_WE = 0, MM_SEL = 1
#                 3365   IR>: 80244001, PC=0006, R1=00000006, R2=00000005, R3=00000000, R4=0000004b, RD_SEL=00, RF_WE=1, BR_SEL=0, PC_SEL=0, DM_WE = 0, MM_SEL = 1
#                 3385   IR>: 44000009, PC=0007, R1=00000006, R2=00000005, R3=00000000, R4=0000004b, RD_SEL=00, RF_WE=0, BR_SEL=0, PC_SEL=0, DM_WE = 0, MM_SEL = 1
# branching absolute fail
#                 3435   IR>: 60000004, PC=0008, R1=00000006, R2=00000005, R3=00000000, R4=0000004b, RD_SEL=00, RF_WE=0, BR_SEL=0, PC_SEL=0, DM_WE = 0, MM_SEL = 1
# branching negative
#                 3455   IR>: 60000004, PC=0008, R1=00000006, R2=00000005, R3=00000000, R4=0000004b, RD_SEL=00, RF_WE=0, BR_SEL=1, PC_SEL=1, DM_WE = 0, MM_SEL = 1
#                 3465   IR>: 80151002, PC=0004, R1=00000006, R2=00000005, R3=00000000, R4=0000004b, RD_SEL=00, RF_WE=0, BR_SEL=1, PC_SEL=0, DM_WE = 0, MM_SEL = 1
#                 3495   IR>: 80151002, PC=0004, R1=00000005, R2=00000005, R3=00000000, R4=0000004b, RD_SEL=00, RF_WE=1, BR_SEL=1, PC_SEL=0, DM_WE = 0, MM_SEL = 1
#                 3515   IR>: 4100000b, PC=0005, R1=00000005, R2=00000005, R3=00000000, R4=0000004b, RD_SEL=00, RF_WE=0, BR_SEL=0, PC_SEL=0, DM_WE = 0, MM_SEL = 1
# branching absolute fail
#                 3565   IR>: 80244001, PC=0006, R1=00000005, R2=00000005, R3=00000000, R4=0000004b, RD_SEL=00, RF_WE=0, BR_SEL=0, PC_SEL=0, DM_WE = 0, MM_SEL = 1
